<svg version="1.1" xmlns="http://www.w3.org/2000/svg" xmlns:xlink="http://www.w3.org/1999/xlink" x="0px" y="0px"
	 viewBox="0 0 513 91" style="enable-background:new 0 0 513 91;" xml:space="preserve">
<style type="text/css">
	.st0-18{fill:#FFFFFF;enable-background:new    ;}
</style>
<path class="st0-18" d="M159.6,73.1C103.8,73.1,21.8,64.6,0,51.4V91h513V0C314.9,0,266.8,73.1,159.6,73.1z"/>
</svg>
