<svg width="120" height="102" viewBox="0 0 120 102" fill="none" xmlns="http://www.w3.org/2000/svg">
<path d="M81.7528 14.5111V13.5671H82.3822C82.6969 13.5671 83.0385 13.639 83.0385 14.0166C83.0385 14.4842 82.6969 14.5111 82.3103 14.5111H81.7528ZM81.7528 14.8977H82.2833L83.0745 16.2194H83.587L82.7328 14.8797C83.1734 14.8258 83.5151 14.5831 83.5151 14.0436C83.5151 13.4412 83.1644 13.1805 82.4541 13.1805H81.3123V16.2284H81.7618V14.8977H81.7528ZM80.1885 14.6909C80.1885 13.4412 81.1145 12.4972 82.3103 12.4972C83.4881 12.4972 84.4141 13.4412 84.4141 14.6909C84.4141 15.9586 83.4881 16.8937 82.3103 16.8937C81.1145 16.8937 80.1885 15.9586 80.1885 14.6909ZM82.3103 17.3342C83.7308 17.3342 84.9446 16.2194 84.9446 14.6909C84.9446 13.1715 83.7308 12.0566 82.3103 12.0566C80.8718 12.0566 79.667 13.1715 79.667 14.6909C79.667 16.2194 80.8718 17.3342 82.3103 17.3342Z" fill="white"/>
<path d="M20.1307 12.632C18.872 13.1355 17.4155 14.3133 17.4155 16.1924V21.1823C17.4155 22.0634 17.6763 22.8186 18.4944 23.7356C19.3845 24.7246 24.3924 29.3369 24.5362 29.4628C25.1656 29.9752 25.4713 30.8474 25.4713 31.6475L25.4803 39.7392C25.4803 40.2697 25.1836 40.6024 24.6801 40.8181C23.781 41.1957 22.6122 41.1598 21.6951 40.8361C21.2816 40.6923 20.886 40.2967 20.886 39.7482L20.9129 33.4637H17.4605L17.4425 39.5145C17.4875 41.2047 18.3056 42.0948 19.3216 42.7332C21.4524 44.0728 26.9547 43.7671 28.7169 42.922C30.2184 42.2027 30.9556 40.7912 30.9556 39.5594L30.9377 29.8404C30.9377 28.8514 30.4432 27.8175 29.8408 27.251C29.3193 26.7655 24.3384 22.0454 23.8619 21.6048C23.3584 21.1373 22.8999 20.445 22.8999 19.456V15.581C22.8999 15.2394 23.1067 14.7359 23.6911 14.4661C24.4913 14.0975 25.9658 14.1605 26.694 14.4661C27.2245 14.6909 27.5032 15.0685 27.5032 15.599L27.4762 20.7057H30.9467V12.0476H27.4762V12.7309C24.9768 11.7419 21.9469 11.9038 20.1307 12.632Z" fill="white"/>
<path d="M42.6262 14.5291C43.1387 14.637 43.6422 14.9966 43.6422 15.6799V39.7123C43.6422 40.4675 43.0758 40.7642 42.6352 40.8721C41.9429 41.0519 40.7651 41.0429 40.0459 40.8631C39.3716 40.6923 39.0209 40.2607 39.0209 39.7033V15.6709C39.0209 14.9786 39.5604 14.637 40.0459 14.5201C40.7741 14.3493 41.853 14.3583 42.6262 14.5291ZM36.1529 12.1555C34.7503 12.4882 33.5186 13.5581 33.5186 15.2573V40.1528C33.5186 41.4745 34.5615 42.8591 36.1798 43.2187C39.4974 43.9559 43.2106 44.1178 46.5282 43.2457C48.0926 42.8321 49.1535 41.7532 49.1535 40.1438V15.2484C49.1625 13.8008 48.1466 12.5331 46.5192 12.1465C43.9569 11.5442 39.6323 11.3284 36.1529 12.1555Z" fill="white"/>
<path d="M50.8789 12.0477V14.4122C51.3195 14.4122 51.742 14.7089 51.742 15.2034V40.1708C51.742 40.6294 51.3374 40.971 50.8879 40.971V43.3446H64.3381V33.3289H61.9915C61.9825 35.7744 60.6249 40.998 58.1435 40.998H57.2534V15.1944C57.2534 14.7539 57.649 14.4033 58.1165 14.4033V12.0477H50.8789Z" fill="white"/>
<path d="M86.5005 12.0476V14.4032C86.932 14.4032 87.3546 14.7269 87.3546 15.1944V40.1798C87.3546 40.6113 86.977 40.971 86.5005 40.971V43.3356H91.6612V40.962C91.1937 40.962 90.7981 40.6383 90.7981 40.1708V23.9694L97.0557 43.3445H101.65V15.1944C101.65 14.7988 101.992 14.4032 102.495 14.4032L102.504 12.0476H97.3344V14.4032C97.8019 14.4032 98.2065 14.7359 98.2065 15.1944V29.0762L92.7041 12.0386H86.5005V12.0476Z" fill="white"/>
<path d="M73.8682 24.0593L76.008 32.7085H71.6654L73.8682 24.0593ZM71.6834 14.4032C72.2588 14.4032 72.5915 14.9337 72.5286 15.1944C72.4566 15.5271 65.4888 43.3446 65.4888 43.3446H69.13C69.13 43.3446 69.7414 40.3686 69.8313 40.027C69.9122 39.7662 71.108 34.9112 71.108 34.9112H76.5384C76.5384 34.9112 77.5814 39.047 77.7972 40.009C77.914 40.5125 78.6063 43.3356 78.6063 43.3356H84.765V40.953H84.3245C83.839 40.953 83.5243 40.5844 83.4883 40.3596L76.5384 12.0297H71.6744C71.6834 12.0476 71.6834 14.4122 71.6834 14.4032Z" fill="white"/>
<path d="M20.9399 47.3545H22.6212C23.0168 47.3545 23.3405 47.6332 23.3405 48.0108V61.452C23.3405 61.8566 22.9718 62.0993 22.6302 62.0993H20.9309V47.3545H20.9399ZM17.4155 46.0418V47.3545C17.6853 47.3545 17.901 47.5792 17.901 47.795V61.6678C17.901 61.9016 17.6942 62.1083 17.4155 62.1083V63.421H24.4643C25.4353 63.421 26.3973 62.7287 26.3973 61.6228V47.786C26.3973 46.9679 25.723 46.0418 24.4733 46.0418H17.4155Z" fill="white"/>
<path d="M27.7102 47.3455C27.9619 47.3455 28.1957 47.5253 28.1957 47.786V61.6588C28.1957 61.9285 27.9349 62.1084 27.7102 62.1084V63.421H35.4332V57.7838H34.2285L32.8529 62.1174H31.2525V55.0416H32.0977C32.8259 55.0686 33.3204 55.5541 33.3204 56.1744V56.7948H34.5971V51.8768H33.3204V52.5242C33.3204 53.1356 32.772 53.639 32.0977 53.639H31.2435V47.3545H32.8259L34.1566 50.6901H35.4243L34.5881 46.0328H27.7012V47.3455H27.7102Z" fill="white"/>
<path d="M96.4805 46.3655C95.7792 46.6442 94.979 47.3005 94.979 48.3435V51.1126C94.979 51.5981 95.1229 52.0207 95.5724 52.5242C96.0669 53.0726 98.845 55.635 98.9259 55.7069C99.2766 55.9946 99.4474 56.4711 99.4474 56.9207L99.4564 61.4071C99.4564 61.7038 99.2856 61.8926 99.0159 62.0005C98.5124 62.2162 97.865 62.1893 97.3616 62.0095C97.1278 61.9285 96.912 61.7128 96.912 61.3981L96.921 57.9186H94.997L94.988 61.2812C95.015 62.2162 95.4735 62.7107 96.0399 63.0704C97.2177 63.8166 100.275 63.6458 101.255 63.1783C102.082 62.7737 102.486 61.9915 102.486 61.3082L102.477 55.9137C102.477 55.3653 102.199 54.7899 101.866 54.4842C101.578 54.2144 98.8181 51.5891 98.5483 51.3464C98.2696 51.0857 98.0179 50.699 98.0179 50.1506V48.0018C98.0179 47.804 98.1348 47.5253 98.4584 47.3814C98.908 47.1747 99.7171 47.2106 100.131 47.3814C100.418 47.5073 100.58 47.7231 100.58 48.0108L100.571 50.8519H102.495V46.0508H100.571V46.4284C99.1687 45.871 97.4874 45.9609 96.4805 46.3655Z" fill="white"/>
<path d="M66.505 55.4282H68.1593C68.5279 55.4282 68.8875 55.6799 68.8875 56.1564L68.8785 61.443C68.8785 61.8476 68.5279 62.0993 68.1593 62.0993H66.487V55.4282H66.505ZM68.1503 47.3544C68.5639 47.3544 68.8696 47.6511 68.8696 48.0018V52.9827C68.8696 53.3513 68.5639 53.63 68.1593 53.63H66.478V47.3455H68.1503V47.3544ZM62.9536 47.3544C63.1514 47.3544 63.4211 47.4803 63.4211 47.795V61.6588C63.4211 61.9914 63.1244 62.0993 62.9536 62.0993V63.412H70.0024C70.9374 63.412 71.9444 62.7107 71.9444 61.6768V56.1564C71.9444 55.5361 71.7016 55.0416 70.8835 54.574C71.6387 54.2504 71.9444 53.4772 71.9444 52.9917V47.831C71.9444 46.9409 71.1532 46.0508 70.0024 46.0508H62.9536V47.3544Z" fill="white"/>
<path d="M78.454 47.3544C78.8676 47.3544 79.1733 47.6511 79.1733 48.0108V52.9917C79.1733 53.3603 78.8586 53.639 78.463 53.639H76.7817V47.3544H78.454ZM82.2391 61.6588V56.1564C82.2391 55.5361 81.9964 55.0416 81.1782 54.574C81.9334 54.2504 82.2391 53.4772 82.2391 52.9917V47.831C82.2391 46.9409 81.4569 46.0508 80.3061 46.0508H73.2573V47.3634C73.4551 47.3634 73.7248 47.4893 73.7248 47.804V61.6678C73.7248 62.0004 73.4281 62.1083 73.2573 62.1083V63.421H77.2672V62.0993C76.9795 62.0993 76.7817 61.9105 76.7817 61.6588V55.4372H76.7997H78.454C78.8316 55.4372 79.1822 55.6889 79.1822 56.1654V61.6678C79.1822 62.7826 80.1443 63.43 81.1333 63.43H82.7156V62.1173C82.4909 62.0993 82.2391 61.9375 82.2391 61.6588Z" fill="white"/>
<path d="M47.5617 46.1138C46.7166 46.0149 45.377 46.0688 44.9814 46.1227C44.2711 46.2127 43.3091 46.7701 43.3091 47.8759V61.6229C43.3091 62.3151 43.7406 63.0614 44.8375 63.3671C45.7186 63.6098 47.9034 63.6548 48.9913 63.3761C50.0522 63.1153 50.5197 62.459 50.5197 61.434V58.2064H48.6047V61.452C48.6047 61.8117 48.3259 61.9915 48.0652 62.0904C47.7865 62.1983 47.1841 62.1803 46.8874 62.0814C46.5458 61.9555 46.3749 61.7397 46.3659 61.452V48.0648C46.3659 47.813 46.5548 47.5343 46.8694 47.4354C47.2381 47.3275 47.8135 47.3185 48.1281 47.4444C48.3979 47.5523 48.6047 47.7501 48.6047 48.0378L48.5957 51.2835H50.5107V46.0328H48.5957V46.7251C48.5867 46.7251 48.3349 46.2037 47.5617 46.1138Z" fill="white"/>
<path d="M56.0403 52.713L57.2271 57.5141H54.8086L56.0403 52.713ZM54.8266 47.3545C55.1502 47.3545 55.3301 47.6512 55.2941 47.786C55.2581 47.9748 51.3921 63.412 51.3921 63.412H53.415C53.415 63.412 53.7567 61.7667 53.8106 61.5689C53.8556 61.4251 54.5209 58.7278 54.5209 58.7278H57.5328C57.5328 58.7278 58.1082 61.0205 58.2251 61.5599C58.288 61.8386 58.6746 63.412 58.6746 63.412H62.0911V62.0904H61.8484C61.5786 62.0904 61.3988 61.8836 61.3808 61.7667L57.5238 46.0328H54.8266V47.3545Z" fill="white"/>
<path d="M88.1548 52.713L89.3506 57.5141H86.932L88.1548 52.713ZM86.941 47.3545C87.3097 47.3815 87.4355 47.6871 87.3816 47.8759C87.3456 48.0648 83.4976 63.412 83.4976 63.412H85.5205C85.5205 63.412 85.8621 61.7667 85.9161 61.5689C85.961 61.4251 86.6264 58.7278 86.6264 58.7278H89.6383C89.6383 58.7278 90.2137 61.0205 90.3395 61.5599C90.4025 61.8386 90.7891 63.412 90.7891 63.412H94.2056V62.0904H93.9628C93.6931 62.0904 93.5133 61.8836 93.4953 61.7667L89.6383 46.0328H86.941V47.3545Z" fill="white"/>
<path d="M64.0054 73.7784C63.9694 74.0211 63.9065 74.2189 63.8076 74.3988C63.8076 74.3898 63.8076 74.3897 63.7986 74.3897C63.7447 74.3088 63.6907 74.2729 63.6278 74.2909C63.5738 74.3088 63.5199 74.3897 63.4929 74.5246C63.4749 74.6505 63.4749 74.8123 63.5019 74.9742C63.5289 75.1 63.5828 75.2079 63.6188 75.2888C63.6458 75.3608 63.6817 75.4057 63.7447 75.4507C63.7267 75.5406 63.5469 75.4507 63.4839 75.3967C63.3311 75.2439 63.2592 75.1809 63.2232 75.0731C63.0883 75.1899 62.8905 75.163 62.7107 75.1C62.5759 75.0551 62.468 74.8842 62.477 74.7943C62.5759 74.8573 62.6658 74.9022 62.7377 74.9112C62.9175 74.9382 63.0793 74.7943 63.1063 74.5606C63.1333 74.3178 62.9984 74.0841 62.8096 74.0301C62.7916 74.0211 62.7647 74.0211 62.7467 74.0211C62.7467 73.9762 62.7287 73.9222 62.7107 73.8773C62.7557 73.6975 62.7916 73.5087 62.7916 73.3558C62.7916 73.122 62.7467 72.8793 62.6298 72.6995C63.0793 72.7175 63.5648 72.9512 63.7806 73.185C64.0054 73.4277 64.0144 73.6345 63.9964 73.7784C64.0054 73.7694 64.0054 73.7784 64.0054 73.7784ZM62.6208 75.9002C62.2882 75.8283 62.0274 75.6395 62.0364 75.4866C62.0454 75.3428 62.3241 75.2798 62.6658 75.3518C62.9984 75.4237 63.2592 75.6125 63.2412 75.7564C63.2322 75.9182 62.9535 75.9811 62.6208 75.9002ZM61.452 74.6505V74.6325C61.3351 74.7674 60.9575 74.8033 60.8227 74.8033C60.8137 74.8033 60.8047 74.8033 60.7957 74.8033C60.7867 74.8033 60.7687 74.7943 60.7597 74.7943H60.7507C60.7417 74.7853 60.7327 74.7853 60.7327 74.7764C60.6608 74.7314 60.6249 74.6415 60.6159 74.5696C60.6608 74.5875 60.7148 74.5965 60.7777 74.6055C60.7867 74.6145 60.7957 74.6145 60.8137 74.6145C60.8406 74.6145 60.8856 74.6145 60.9126 74.6235C61.0115 74.6235 61.1014 74.5875 61.1823 74.5246C61.2093 74.4976 61.2362 74.4617 61.2542 74.4257C61.3082 74.3538 61.3351 74.2639 61.3351 74.174C61.3441 73.9312 61.1643 73.7334 60.9485 73.7424C60.9216 73.7424 60.8946 73.7424 60.8766 73.7514C60.8676 73.6705 60.8227 73.5986 60.7597 73.5356C60.7687 73.2479 60.7777 72.8433 60.7867 72.5017H60.7957C61.1373 72.5287 61.3441 72.5916 61.5509 72.6455L61.5959 72.6635C62.0005 72.7804 62.1803 73.1131 62.2072 73.3468C62.2162 73.4277 62.2162 73.5176 62.1983 73.6076C62.0904 73.6345 62.0094 73.7154 61.9915 73.8233C61.9735 73.8143 61.9465 73.8054 61.9285 73.7964C61.8386 73.7694 61.7577 73.7964 61.6948 73.8413C61.6228 73.9043 61.5689 74.0121 61.5689 74.138C61.5599 74.2639 61.5959 74.3987 61.6588 74.5066C61.7217 74.5876 61.7937 74.6505 61.8836 74.6685C61.9735 74.6865 62.0634 74.7044 62.1443 74.6864C62.1353 74.7764 62.0544 74.8573 61.9645 74.8663C61.7307 74.8663 61.461 74.7674 61.452 74.6505ZM60.4001 75.6934L59.519 75.3698L60.4001 75.0551L61.2812 75.3787L60.4001 75.6934ZM59.4021 74.6505C59.3841 74.7674 59.1144 74.8663 58.8986 74.8573C58.8177 74.8483 58.7278 74.7764 58.7188 74.6775C58.7997 74.6865 58.8896 74.6775 58.9795 74.6595C59.0605 74.6415 59.1414 74.5786 59.1953 74.4976C59.2673 74.3898 59.3122 74.2549 59.3032 74.129C59.3032 74.0032 59.2493 73.8953 59.1773 73.8323C59.1054 73.7784 59.0335 73.7604 58.9436 73.7874C58.9166 73.7964 58.8986 73.8054 58.8717 73.8143C58.8537 73.7154 58.7907 73.6435 58.7008 73.6076C58.6918 73.5176 58.6829 73.4277 58.7008 73.3378C58.7278 73.1041 58.9166 72.7624 59.3212 72.6545L59.3751 72.6366C59.5729 72.5826 59.7887 72.5197 60.1304 72.4927V73.5176C60.0495 73.5806 59.9955 73.6525 59.9865 73.7424C59.9685 73.7334 59.9416 73.7334 59.9146 73.7334C59.6898 73.7244 59.51 73.9222 59.519 74.165C59.519 74.2549 59.546 74.3448 59.5909 74.4167C59.6089 74.4527 59.6359 74.4886 59.6718 74.5156C59.7438 74.5875 59.8427 74.6235 59.9326 74.6145C59.9685 74.6145 60.0045 74.6055 60.0315 74.6055C60.0494 74.5965 60.0584 74.5965 60.0674 74.5965C60.1214 74.5965 60.1753 74.5786 60.2203 74.5606C60.2203 74.6325 60.1753 74.7224 60.1034 74.7674C60.0944 74.7764 60.0854 74.7764 60.0854 74.7853H60.0764C60.0674 74.7853 60.0495 74.7943 60.0405 74.7943C60.0315 74.7943 60.0225 74.7943 60.0135 74.7943C59.8876 74.8033 59.51 74.7584 59.3931 74.6235V74.6505H59.4021ZM58.1614 75.9002C57.8287 75.9811 57.559 75.9182 57.541 75.7653C57.532 75.6215 57.7928 75.4327 58.1254 75.3608C58.4581 75.2888 58.7458 75.3428 58.7458 75.4956C58.7638 75.6395 58.494 75.8283 58.1614 75.9002ZM57.3522 75.3877C57.2983 75.4417 57.1185 75.5316 57.1005 75.4417C57.1544 75.3967 57.1904 75.3518 57.2174 75.2798C57.2623 75.1899 57.3163 75.091 57.3432 74.9652C57.3792 74.8123 57.3792 74.6415 57.3612 74.5156C57.3342 74.3808 57.2893 74.2998 57.2263 74.2819C57.1724 74.2639 57.1185 74.2998 57.0645 74.3718C56.9746 74.201 56.9207 74.0032 56.8937 73.7784C56.8937 73.7694 56.8937 73.7694 56.8937 73.7604C56.8757 73.6255 56.8937 73.4187 57.1185 73.167C57.3522 72.9332 57.8377 72.7085 58.2783 72.6815C58.1614 72.8703 58.1074 73.1131 58.1074 73.3378C58.1074 73.4817 58.1344 73.6525 58.1704 73.8233C58.1344 73.8773 58.1164 73.9402 58.1164 74.0032C58.0985 74.0032 58.0805 74.0032 58.0535 74.0121C57.8647 74.0571 57.7298 74.2999 57.7478 74.5426C57.7658 74.7764 57.9276 74.9202 58.1074 74.8932C58.1794 74.8753 58.2783 74.8393 58.3772 74.7764C58.3772 74.8663 58.2783 75.0371 58.1434 75.082C57.9546 75.145 57.7658 75.163 57.6309 75.0551C57.595 75.172 57.523 75.2349 57.3522 75.3877ZM58.4671 73.9852C58.6109 73.9402 58.7458 74.0301 58.7458 74.192C58.7548 74.3628 58.6379 74.5336 58.494 74.5876C58.3502 74.6325 58.2243 74.5426 58.2153 74.3718C58.2063 74.2099 58.3232 74.0301 58.4671 73.9852ZM60.445 73.7514C60.6159 73.7514 60.7507 73.8863 60.7507 74.0571C60.7417 74.2279 60.6069 74.3538 60.4361 74.3538C60.2652 74.3538 60.1304 74.2189 60.1304 74.0571C60.1304 73.8953 60.2652 73.7514 60.445 73.7514ZM62.423 73.9852C62.5759 74.0301 62.6748 74.2099 62.6658 74.3718C62.6568 74.5336 62.5219 74.6325 62.3871 74.5876C62.2342 74.5336 62.1263 74.3628 62.1443 74.192C62.1443 74.0301 62.2792 73.9312 62.423 73.9852ZM62.0274 72.178C61.7127 72.0342 61.2093 71.9533 60.7957 71.9173C60.7957 71.8723 60.7957 71.7015 60.7957 71.7015H61.1014L61.1194 71.261H60.8137L60.8227 70.8833H60.1304V71.261H59.8157V71.7015H60.1304V71.9173C59.7258 71.9443 59.2133 72.0342 58.8986 72.178C57.9366 71.9982 57.0196 72.3488 56.588 72.7624C56.2284 73.1041 56.2014 73.4727 56.2284 73.7784C56.2464 74.0661 56.4172 74.4797 56.561 74.7404L56.633 74.8842C56.6599 74.8123 56.6959 74.7494 56.7319 74.6954C56.8397 74.5426 56.9476 74.5516 56.9656 74.7134C56.9836 74.8663 56.9207 75.109 56.8218 75.2619L57.4151 76.5206C57.7208 75.9542 60.2742 75.9452 60.3911 75.9452C60.508 75.9452 63.2232 75.9541 63.385 76.5835L64.0504 75.2619C63.9604 75.109 63.8975 74.8753 63.9245 74.7224C63.9515 74.5606 64.0503 74.5516 64.1582 74.7044C64.1852 74.7584 64.2212 74.8213 64.2481 74.8932L64.3201 74.7494C64.4729 74.4886 64.6437 74.0661 64.6707 73.7874C64.7067 73.4817 64.6887 73.1131 64.3381 72.7714C63.8885 72.3488 62.9804 71.9982 62.0274 72.178ZM116.503 85.9879H79.955C79.8112 84.8191 79.5595 83.6323 79.1549 82.4365C79.1369 82.3915 78.8672 81.6543 78.8672 81.6543C78.8672 81.6453 78.7413 81.3396 78.7413 81.3396L78.5255 80.8182L78.3907 80.5125C78.4086 80.5484 78.1479 80 78.1479 80C78.1569 80.009 77.9951 79.6853 77.9951 79.6853C78.031 79.7662 77.7343 79.1729 77.7343 79.1729L77.6444 79.002C77.6444 78.993 77.2129 78.2468 77.2129 78.2468L77.087 78.049C77.069 78.013 76.7453 77.4916 76.7453 77.4916C76.7543 77.5006 76.5385 77.1859 76.5385 77.1859C76.5385 77.1769 76.2598 76.7723 76.2598 76.7723C76.2508 76.7543 76.0441 76.4666 76.0441 76.4666C76.0441 76.4756 75.6754 75.9811 75.6754 75.9811C75.6485 75.9452 75.4956 75.7474 75.4956 75.7474C75.5316 75.7923 74.9652 75.082 74.9652 75.082C74.9562 75.082 74.8573 74.9562 74.8573 74.9562C74.8483 74.9472 74.3808 74.4077 74.3808 74.4077L74.174 74.183L73.6975 73.6795L73.5446 73.5176C73.5356 73.5176 73.1131 73.0951 73.1131 73.0951C73.0861 73.0681 72.8793 72.8793 72.8793 72.8793C72.9063 72.9063 72.214 72.2859 72.214 72.2859C72.187 72.2589 71.5307 71.7195 71.5307 71.7195C71.5577 71.7375 71.3778 71.6026 71.3778 71.6026C71.2969 71.5397 70.8024 71.1711 70.8024 71.1621C70.7934 71.1621 70.5417 70.9733 70.5417 70.9733C70.5327 70.9643 70.0562 70.6406 70.0562 70.6406C70.0022 70.6046 69.7955 70.4698 69.7955 70.4698C69.7775 70.4608 69.0043 69.9843 69.0043 69.9843L68.2221 69.5527L68.0692 69.4808C67.9973 69.4448 67.4039 69.1571 67.4039 69.1571C67.3859 69.1481 67.0802 69.0133 67.0802 69.0133C67.1072 69.0223 66.5498 68.7885 66.5498 68.7885L66.2351 68.6626L65.6237 68.4468C65.5698 68.4289 65.39 68.3659 65.39 68.3659C65.381 68.3659 64.41 68.0782 64.41 68.0782L64.2931 68.0602C64.3201 68.0692 63.5918 67.8984 63.5918 67.8984C63.5828 67.8984 63.2771 67.8355 63.2771 67.8355L62.6568 67.7276L62.3241 67.6826C62.3151 67.6826 61.6768 67.6197 61.6768 67.6197C61.6228 67.6107 61.3711 67.5927 61.3711 67.5927L60.4271 67.5568L59.4651 67.5927C59.474 67.5927 59.2223 67.6107 59.2223 67.6107C59.1594 67.6197 58.521 67.6826 58.521 67.6826L58.1794 67.7276L57.559 67.8355C57.4871 67.8535 57.2533 67.8984 57.2533 67.8984L56.5251 68.0692L56.3632 68.1052C56.3452 68.1142 55.4642 68.3749 55.4642 68.3749C55.4731 68.3749 55.2753 68.4379 55.2753 68.4379C55.2304 68.4558 54.601 68.6806 54.601 68.6806C54.5831 68.6896 54.2864 68.8065 54.2864 68.8065C54.2954 68.7975 53.7379 69.0402 53.7379 69.0402L53.4412 69.1751L52.8568 69.4628C52.8029 69.4898 52.6141 69.5887 52.6141 69.5887C52.632 69.5797 51.8409 70.0202 51.8409 70.0202L51.7689 70.0562L51.679 70.1191C51.688 70.1101 51.0587 70.5057 51.0587 70.5057L50.8878 70.6226C50.8159 70.6676 50.3124 71.0182 50.3124 71.0182C50.2944 71.0362 50.0517 71.207 50.0517 71.207C50.0427 71.207 49.4763 71.6386 49.4763 71.6386L49.3234 71.7555L48.6581 72.3039C48.6311 72.3219 47.9658 72.9243 47.9658 72.9243C47.9568 72.9333 47.7501 73.122 47.7501 73.122L47.3185 73.5446C47.3095 73.5536 47.1027 73.7604 47.1027 73.7604C47.0758 73.7874 46.6801 74.2009 46.6801 74.2009C46.6622 74.2279 46.4464 74.4527 46.4464 74.4527C46.4554 74.4437 46.0058 74.9652 46.0058 74.9652C45.9789 75.0011 45.862 75.136 45.862 75.136C45.871 75.127 45.3225 75.8103 45.3225 75.8103L45.2147 75.9452C45.1697 76.0081 44.8011 76.5026 44.8011 76.5026C44.7831 76.5296 44.6033 76.7903 44.6033 76.7903L44.2886 77.2578L44.1088 77.5275C44.1178 77.5185 43.7851 78.049 43.7851 78.049L43.6413 78.2828C43.6503 78.2738 43.2187 79.029 43.2187 79.029L43.1917 79.074L42.8231 79.7932L42.6972 80.0719L42.4545 80.5844C42.4365 80.6294 42.3286 80.8811 42.3286 80.8811C42.3196 80.8901 42.1128 81.4026 42.1128 81.4026L42.0049 81.6723C41.996 81.6903 41.7442 82.3915 41.7442 82.3915C41.3127 83.6592 41.0519 84.855 40.9171 86.0328H3.49742V3.49741H116.494V85.9879H116.503ZM75.2708 93.1355C74.6055 93.0546 73.7424 93.1086 73.2929 93.2434C72.8074 93.3873 71.7914 93.4322 71.0991 93.2434C70.5417 93.0816 69.2021 93.0456 68.5907 93.2434C68.4199 93.2974 68.1771 93.3333 67.9164 93.3603V93.1985L68.1951 92.9647V91.8768C68.1951 91.5532 67.4758 91.2205 67.359 91.0856C67.314 91.0227 67.2241 90.9238 67.1252 90.8069C67.2151 90.4203 67.1252 89.9528 66.8555 89.5662C66.8105 89.5033 67.3769 89.2605 67.2331 89.1616C67.0892 89.0627 66.5318 89.1706 66.379 89.0897C66.316 89.0627 66.2171 89.0178 66.1722 88.9998C65.3091 88.6671 65.0393 87.7321 65.0034 87.3185C64.9854 87.0308 65.0573 86.3115 65.0753 86.0958C65.1562 86.1947 65.2281 86.1227 65.327 86.2486C65.399 85.9609 65.2641 85.826 65.0933 85.7721C65.6058 85.7721 65.8395 85.835 66.2621 86.2396C66.0643 85.7451 65.7856 85.5293 65.2192 85.3765C65.5788 85.2686 66.0463 85.1877 66.6397 85.4394C66.1812 84.9449 65.6687 84.918 65.1203 85.0079C64.8415 84.7561 64.7426 84.7471 64.6258 84.6932C64.365 84.5853 63.8436 83.938 63.5559 84.1627C63.7986 84.2796 63.6817 84.6033 63.421 84.4954C63.412 84.5853 63.421 84.6842 63.448 84.7471C63.4659 84.9539 63.3041 85.0888 63.1243 85.1787C63.394 85.1517 63.5918 85.2236 63.6637 85.4484C63.7357 85.6642 63.7087 85.9249 63.4839 86.1767C63.403 86.2846 63.2771 86.5363 63.2052 86.7521C62.8006 86.9139 62.477 86.9858 62.2342 86.9139C62.0634 86.86 61.7577 86.6802 61.497 86.5183C61.497 85.1877 61.6768 83.8391 62.2792 83.2906C62.396 83.1827 62.6028 83.0569 62.8726 82.913C63.0434 82.9939 63.2142 83.1018 63.3581 83.1917C63.2502 83.3266 63.2771 83.5064 63.421 83.6233C63.5918 83.7671 63.8705 83.7671 64.0414 83.6323C64.2122 83.4974 64.2212 83.2727 64.0414 83.1288C63.8975 83.0119 63.6727 82.9939 63.5109 83.0749C63.403 82.967 63.2682 82.8591 63.1693 82.7692C63.376 82.6613 63.6098 82.5534 63.8526 82.4365C63.8436 82.4455 63.8436 82.4545 63.8436 82.4725C63.8256 82.6882 64.2302 82.8231 64.8685 83.0659C65.354 83.2547 66.4419 83.4255 66.8824 82.9849C66.2351 82.6972 65.8845 82.4275 65.381 82.3016C64.9674 82.2027 64.5808 82.1848 64.3021 82.2297C64.7876 81.996 65.2821 81.7532 65.6957 81.5105C65.9204 81.5554 66.1542 81.6363 66.343 81.6903C66.2891 81.8431 66.37 82.0139 66.5408 82.0859C66.7566 82.1848 67.0173 82.1308 67.1432 81.96C67.2601 81.7892 67.1881 81.5734 66.9813 81.4835C66.8015 81.4026 66.5858 81.4295 66.4419 81.5464C66.298 81.4655 66.1272 81.3936 66.0014 81.3127C66.0733 81.2677 66.1452 81.2138 66.1992 81.1688C66.5498 81.1328 67.0802 80.9261 67.6107 80.5754C68.1052 80.2428 68.3569 79.8292 68.9413 79.2718C68.2491 79.047 67.1432 79.6853 66.6936 80.0809C66.1003 80.5934 65.7226 80.8991 65.8395 81.0969C65.8485 81.0969 65.8485 81.1059 65.8575 81.1059C65.7676 81.1598 65.6867 81.2048 65.5878 81.2587C65.5698 81.1238 65.5608 80.935 65.5518 80.7732C65.7406 80.7372 65.8845 80.6024 65.8845 80.4316C65.8845 80.2338 65.6867 80.0809 65.4529 80.0809C65.2012 80.0809 65.0034 80.2428 65.0034 80.4316C65.0034 80.5934 65.1472 80.7372 65.336 80.7732C65.3091 80.989 65.2641 81.2587 65.1472 81.4655C64.7516 81.6273 64.3111 81.7712 63.8436 81.9061C63.8076 81.8611 63.8076 81.7982 63.8975 81.7622C64.0773 81.6993 64.4909 81.5284 64.7067 81.1958C64.9045 80.8811 64.6977 80.0989 65.2102 79.9101C64.3471 79.8202 63.6458 80.8901 63.5109 81.2317C63.412 81.4565 63.6008 81.6723 63.5019 81.8071C63.448 81.8791 63.3401 81.987 63.2322 82.0679C62.6028 82.2297 61.9375 82.3915 61.443 82.5624C61.3531 81.924 61.5509 81.3846 61.9105 80.9081C62.0544 81.0429 62.477 81.0789 63.0254 80.971C63.439 80.8811 63.7806 80.5125 64.2212 80.009C63.6817 79.8831 63.0973 80.045 62.7467 80.2607C62.5669 80.3686 62.3871 80.4585 62.2342 80.5305C62.7377 80.018 63.412 79.5774 64.0324 79.1998C64.2571 79.1818 64.5089 79.2178 64.7067 79.2448C64.6977 79.3706 64.7966 79.4965 64.9584 79.5325C65.1472 79.5774 65.354 79.4965 65.408 79.3437C65.4709 79.1908 65.363 79.029 65.1652 78.9751C65.0034 78.9391 64.8325 78.993 64.7516 79.1099C64.6258 79.074 64.4819 79.029 64.365 78.993C64.5089 78.9031 64.6437 78.8132 64.7786 78.7323C65.0214 78.7862 65.39 78.5795 65.9744 78.2918C66.4779 78.049 67.305 77.3477 67.0443 76.7543C66.334 77.069 65.8125 77.1589 65.381 77.4646C64.7786 77.8782 64.5089 78.3817 64.6078 78.6064C64.2841 78.7773 63.8705 78.993 63.421 79.2268C63.412 79.2178 63.412 79.2088 63.412 79.1998C63.403 79.1369 63.448 79.065 63.5469 79.002C63.6548 78.9301 64.0953 78.7053 64.356 78.4356C64.6527 78.1389 64.9045 77.4107 64.4819 77.033C64.4729 77.3477 63.7537 77.4916 63.4929 77.9411C63.3401 78.2108 63.2322 78.4086 63.2412 78.6873C63.2502 78.8762 63.3131 79.0829 63.1962 79.2807C63.1962 79.2987 63.1693 79.3257 63.1513 79.3617C63.0434 79.4246 62.9445 79.4785 62.8366 79.5325C62.8186 79.4066 62.8096 79.2268 62.8006 79.065C62.9894 79.029 63.1333 78.8941 63.1333 78.7233C63.1333 78.5255 62.9355 78.3727 62.6927 78.3727C62.45 78.3727 62.2522 78.5255 62.2522 78.7233C62.2522 78.8851 62.3871 79.02 62.5849 79.065C62.5579 79.2717 62.5129 79.5235 62.405 79.7213C62.2432 79.6494 62.1893 79.4336 62.2252 79.3796C62.3511 79.1549 62.1083 78.5615 61.8926 78.2648C61.5689 77.8242 61.2632 77.6085 61.0205 77.3387C62.2882 77.2758 63.2592 77.042 63.2951 76.7633C63.3311 76.4397 62.0544 76.1699 60.4361 76.1699C58.8177 76.1699 57.532 76.4307 57.568 76.7633C57.595 77.033 58.503 77.2668 59.7078 77.3297C59.4561 77.5905 59.1594 77.8152 58.8267 78.2558C58.6109 78.5525 58.3682 79.1459 58.494 79.3706C58.53 79.4246 58.4671 79.6404 58.3142 79.7123C58.2063 79.5055 58.1614 79.2628 58.1344 79.056C58.3232 79.02 58.4671 78.8851 58.4671 78.7143C58.4671 78.5165 58.2783 78.3637 58.0355 78.3637C57.7928 78.3637 57.595 78.5165 57.595 78.7143C57.595 78.8762 57.7388 79.011 57.9276 79.056C57.9186 79.2178 57.9096 79.3976 57.8917 79.5235C57.7928 79.4696 57.6849 79.4066 57.577 79.3527C57.559 79.3167 57.541 79.2897 57.532 79.2718C57.4241 79.074 57.4871 78.8672 57.4961 78.6784C57.514 78.3996 57.3972 78.2018 57.2443 77.9321C56.9836 77.4916 56.2643 77.3387 56.2553 77.0241C55.8328 77.4017 56.0935 78.1389 56.3812 78.4266C56.6419 78.6963 57.0915 78.9211 57.1904 78.993C57.2893 79.065 57.3432 79.1279 57.3342 79.1908C57.3342 79.1998 57.3252 79.1998 57.3252 79.2178C56.8847 78.984 56.4711 78.7683 56.1385 78.5974C56.2374 78.3637 55.9676 77.8692 55.3653 77.4556C54.9337 77.1589 54.4122 77.069 53.702 76.7453C53.4412 77.3387 54.2684 78.04 54.7719 78.2828C55.3473 78.5705 55.7249 78.7683 55.9676 78.7233C56.1025 78.8042 56.2374 78.8941 56.3812 78.984C56.2643 79.02 56.1115 79.065 55.9856 79.1009C55.9047 78.984 55.7339 78.9301 55.563 78.9661C55.3742 79.011 55.2664 79.1818 55.3203 79.3347C55.3832 79.4875 55.59 79.5685 55.7788 79.5235C55.9407 79.4875 56.0396 79.3617 56.0306 79.2358C56.2374 79.1998 56.4891 79.1639 56.7139 79.1908C57.3342 79.5774 58.0085 80.009 58.512 80.5215C58.3592 80.4495 58.1794 80.3596 57.9995 80.2517C57.6489 80.036 57.0555 79.8741 56.5251 80C56.9656 80.5035 57.2983 80.8721 57.7208 80.962C58.2693 81.0699 58.6918 81.0339 58.8357 80.8991C59.1953 81.3756 59.4021 81.924 59.3122 82.5534C58.8177 82.3826 58.1614 82.2207 57.523 82.0589C57.4152 81.978 57.3073 81.8701 57.2533 81.7982C57.1544 81.6633 57.3342 81.4565 57.2443 81.2227C57.1005 80.8811 56.4082 79.8112 55.5451 79.9011C56.0575 80.0899 55.8508 80.8721 56.0486 81.1868C56.2643 81.5194 56.6779 81.6813 56.8577 81.7532C56.9476 81.7802 56.9476 81.8431 56.9117 81.8971C56.4531 81.7712 56.0036 81.6183 55.617 81.4565C55.4911 81.2497 55.4462 80.98 55.4192 80.7642C55.608 80.7283 55.7519 80.5844 55.7519 80.4226C55.7519 80.2248 55.5541 80.0719 55.3113 80.0719C55.0686 80.0719 54.8708 80.2338 54.8708 80.4226C54.8708 80.5934 55.0146 80.7283 55.2034 80.7642C55.1944 80.9261 55.1854 81.1149 55.1675 81.2497C55.0775 81.1958 54.9876 81.1508 54.9067 81.0969C54.9067 81.0969 54.9067 81.0879 54.9157 81.0879C55.0416 80.8991 54.655 80.5844 54.0706 80.0719C53.621 79.6763 52.5152 79.038 51.8229 79.2628C52.4073 79.8202 52.659 80.2248 53.1535 80.5664C53.684 80.9171 54.2144 81.1238 54.5561 81.1598C54.619 81.2048 54.6909 81.2587 54.7629 81.3037C54.637 81.3756 54.4662 81.4565 54.3223 81.5374C54.1875 81.4205 53.9627 81.3936 53.7919 81.4745C53.5761 81.5734 53.5042 81.7802 53.63 81.951C53.7559 82.1218 54.0256 82.1758 54.2324 82.0769C54.4122 81.996 54.4842 81.8251 54.4392 81.6813C54.628 81.6183 54.8528 81.5374 55.0865 81.5015C55.4911 81.7442 55.9856 81.987 56.4801 82.2207C56.2014 82.1758 55.8148 82.1938 55.3922 82.2926C54.8887 82.4185 54.5471 82.6882 53.8908 82.976C54.3313 83.4255 55.4192 83.2457 55.9047 83.0569C56.543 82.8141 56.9476 82.6793 56.9296 82.4635C56.9296 82.4545 56.9207 82.4455 56.9207 82.4275C57.1634 82.5354 57.3882 82.6523 57.604 82.7602C57.5051 82.8591 57.3792 82.967 57.2623 83.0659C57.0915 82.9849 56.8667 83.0029 56.7229 83.1198C56.552 83.2547 56.552 83.4794 56.7229 83.6233C56.8937 83.7582 57.1724 83.7582 57.3432 83.6143C57.4871 83.4974 57.5051 83.3176 57.4062 83.1827C57.541 83.0928 57.7119 82.9849 57.8827 82.904C58.1434 83.0389 58.3502 83.1738 58.4671 83.2816C59.0695 83.8301 59.2493 85.1787 59.2493 86.5093C58.9885 86.6802 58.6828 86.842 58.503 86.9049C58.2693 86.9858 57.9456 86.9049 57.541 86.7431C57.4691 86.5363 57.3432 86.2846 57.2533 86.1677C57.0375 85.9159 57.0106 85.6552 57.0825 85.4394C57.1634 85.2147 57.3612 85.1427 57.6219 85.1697C57.4421 85.0798 57.2803 84.936 57.2983 84.7382C57.3163 84.6662 57.3342 84.5763 57.3163 84.4864C57.0645 84.5943 56.9386 84.2706 57.1814 84.1537C56.8937 83.929 56.3812 84.5763 56.1115 84.6842C55.9946 84.7381 55.8867 84.7471 55.617 84.9989C55.0686 84.909 54.5471 84.927 54.0886 85.4304C54.673 85.1787 55.1405 85.2596 55.5091 85.3675C54.9517 85.5203 54.664 85.7361 54.4752 86.2306C54.8977 85.826 55.1315 85.7631 55.635 85.7631C55.4731 85.808 55.3383 85.9519 55.4012 86.2396C55.5001 86.1137 55.581 86.1857 55.6619 86.0868C55.6889 86.3026 55.7519 87.0218 55.7339 87.3095C55.6979 87.7141 55.4372 88.6581 54.5741 88.9908C54.5381 89.0088 54.4302 89.0537 54.3673 89.0807C54.2144 89.1616 53.657 89.0447 53.5131 89.1526C53.3783 89.2515 53.9357 89.4943 53.8908 89.5572C53.621 89.9438 53.5311 90.4113 53.621 90.7979C53.5221 90.9148 53.4322 91.0137 53.3873 91.0767C53.2704 91.2025 52.5601 91.5442 52.5601 91.8678V92.9557L52.8298 93.1895V93.3333C52.6231 93.3154 52.4163 93.2794 52.2365 93.2254C51.679 93.0636 50.3394 93.0276 49.728 93.2254C49.2066 93.3963 48.1906 93.4232 47.5253 93.2254C47.0038 93.0726 46.2306 93.0276 45.5473 93.1176C44.4864 91.5891 43.92 89.764 43.92 87.7141C43.92 87.5163 43.929 87.3095 43.938 87.1117C43.9559 86.9229 43.9649 86.7341 43.9829 86.5363C44.0908 85.4754 44.3246 84.3965 44.6932 83.3176C44.7022 83.2906 44.7112 83.2726 44.7202 83.2457C44.7921 83.0479 44.864 82.8411 44.9359 82.6433C44.9719 82.5624 44.9989 82.4815 45.0348 82.4095C45.0888 82.2657 45.1517 82.1128 45.2147 81.969C45.2506 81.8791 45.2866 81.7982 45.3315 81.7083C45.3945 81.5644 45.4664 81.4116 45.5383 81.2677C45.5833 81.1868 45.6192 81.1059 45.6552 81.025C45.7361 80.8541 45.835 80.6743 45.9249 80.5035C45.9519 80.4495 45.9789 80.4046 46.0058 80.3596C46.1227 80.1349 46.2486 79.9191 46.3745 79.7123C46.4104 79.6404 46.4554 79.5774 46.5003 79.5145C46.5902 79.3617 46.6802 79.2088 46.7791 79.065C46.833 78.984 46.8869 78.9031 46.9319 78.8312C47.0218 78.6963 47.1207 78.5525 47.2196 78.4176C47.2735 78.3367 47.3275 78.2648 47.3814 78.1839C47.4893 78.031 47.5972 77.8872 47.7051 77.7433C47.7501 77.6804 47.795 77.6264 47.84 77.5635C47.9928 77.3657 48.1546 77.1679 48.3165 76.9611C48.3524 76.9162 48.3884 76.8712 48.4244 76.8263C48.5502 76.6734 48.6851 76.5206 48.82 76.3677C48.8829 76.3048 48.9458 76.2329 49.0088 76.1609C49.1256 76.0351 49.2425 75.9092 49.3594 75.7923C49.4313 75.7204 49.4943 75.6575 49.5572 75.5855C49.6831 75.4597 49.8089 75.3338 49.9348 75.2079C49.9978 75.154 50.0517 75.091 50.1146 75.0371C50.3034 74.8663 50.4923 74.6864 50.69 74.5156C50.699 74.5156 50.699 74.5066 50.708 74.4976C50.8968 74.3358 51.0856 74.174 51.2834 74.0211C51.3464 73.9672 51.4183 73.9222 51.4812 73.8683C51.6251 73.7604 51.76 73.6525 51.9038 73.5446C51.9847 73.4907 52.0566 73.4367 52.1286 73.3828C52.2724 73.2839 52.4073 73.185 52.5511 73.0861C52.6231 73.0411 52.695 72.9872 52.7669 72.9422C52.9377 72.8254 53.1176 72.7175 53.2974 72.6096C53.3423 72.5826 53.3783 72.5556 53.4232 72.5287C53.639 72.4028 53.8638 72.2769 54.0886 72.16C54.1515 72.1241 54.2144 72.0971 54.2774 72.0611C54.4392 71.9802 54.61 71.8993 54.7719 71.8184C54.8528 71.7824 54.9337 71.7465 55.0146 71.7105C55.1675 71.6386 55.3293 71.5756 55.4821 71.5127C55.563 71.4857 55.644 71.4498 55.7249 71.4228C55.8957 71.3509 56.0665 71.2969 56.2374 71.234C56.3003 71.207 56.3632 71.18 56.4352 71.1621C56.6689 71.0811 56.9117 71.0182 57.1454 70.9463C57.1904 70.9283 57.2353 70.9283 57.2803 70.9103C57.4781 70.8654 57.6669 70.8114 57.8647 70.7755C57.9456 70.7575 58.0265 70.7485 58.1164 70.7305C58.2783 70.7035 58.4491 70.6766 58.6109 70.6496C58.7008 70.6406 58.7907 70.6226 58.8717 70.6136C59.0425 70.5956 59.2133 70.5777 59.3841 70.5597C59.465 70.5507 59.546 70.5417 59.6179 70.5417C59.8696 70.5237 60.1214 70.5147 60.3731 70.5147C60.6159 70.5147 60.8766 70.5237 61.1194 70.5417C61.2003 70.5507 61.2722 70.5507 61.3531 70.5597C61.5239 70.5687 61.6948 70.5867 61.8656 70.6136C61.9555 70.6226 62.0454 70.6406 62.1353 70.6496C62.2971 70.6766 62.459 70.7035 62.6298 70.7305C62.7107 70.7485 62.7916 70.7665 62.8726 70.7755C63.0704 70.8204 63.2682 70.8654 63.457 70.9103C63.5019 70.9193 63.5559 70.9283 63.6008 70.9463C63.8346 71.0092 64.0773 71.0811 64.3111 71.1621C64.383 71.18 64.437 71.207 64.4999 71.234C64.6707 71.2969 64.8415 71.3509 65.0124 71.4228C65.0933 71.4498 65.1832 71.4857 65.2641 71.5217C65.417 71.5846 65.5698 71.6476 65.7316 71.7195C65.8125 71.7555 65.8935 71.7914 65.9744 71.8274C66.1362 71.9083 66.307 71.9892 66.4689 72.0701C66.5318 72.1061 66.5947 72.1331 66.6577 72.169C66.8824 72.2859 67.0982 72.4118 67.323 72.5377C67.368 72.5646 67.4129 72.5916 67.4489 72.6186C67.6287 72.7265 67.7995 72.8343 67.9703 72.9422C68.0423 72.9872 68.1142 73.0321 68.1861 73.0861C68.33 73.185 68.4738 73.2749 68.6087 73.3738C68.6806 73.4277 68.7615 73.4817 68.8334 73.5356C68.9773 73.6345 69.1212 73.7424 69.256 73.8503C69.3279 73.9042 69.3909 73.9492 69.4538 74.0032C69.6426 74.156 69.8404 74.3178 70.0292 74.4707C70.0292 74.4797 70.0472 74.4887 70.0562 74.4887C70.254 74.6595 70.4428 74.8303 70.6316 75.0101C70.6945 75.0641 70.7575 75.127 70.8204 75.1899C70.9463 75.3068 71.0722 75.4327 71.198 75.5585C71.261 75.6305 71.3329 75.6934 71.3958 75.7653C71.5127 75.8912 71.6386 76.0171 71.7465 76.134C71.8094 76.2059 71.8723 76.2688 71.9263 76.3408C72.0611 76.4936 72.196 76.6464 72.3219 76.7903C72.3578 76.8353 72.4028 76.8802 72.4298 76.9252C72.6006 77.123 72.7624 77.3207 72.9153 77.5275C72.9602 77.5905 73.0052 77.6534 73.0501 77.7074C73.158 77.8512 73.2659 77.9951 73.3738 78.1479C73.4277 78.2288 73.4907 78.3007 73.5446 78.3817C73.6345 78.5165 73.7244 78.6604 73.8233 78.7952C73.8773 78.8762 73.9312 78.9571 73.9762 79.038C74.0661 79.1818 74.165 79.3347 74.2549 79.4875C74.2909 79.5595 74.3358 79.6134 74.3808 79.6853C74.5066 79.9011 74.6325 80.1169 74.7494 80.3327C74.7764 80.3776 74.8033 80.4226 74.8303 80.4765C74.9202 80.6473 75.0101 80.8272 75.1 81.007C75.145 81.0879 75.1809 81.1688 75.2169 81.2407C75.2888 81.3846 75.3608 81.5374 75.4237 81.6813C75.4597 81.7712 75.4956 81.8521 75.5406 81.933C75.6035 82.0859 75.6664 82.2387 75.7294 82.3915C75.7653 82.4725 75.7923 82.5444 75.8193 82.6163C75.9002 82.8321 75.9811 83.0389 76.053 83.2547C76.062 83.2727 76.062 83.2816 76.071 83.2996C76.4307 84.3785 76.6734 85.4574 76.7813 86.5093C76.7993 86.7071 76.8173 86.8959 76.8352 87.0847C76.8442 87.2825 76.8532 87.4893 76.8532 87.6871C76.8982 89.782 76.3228 91.6071 75.2708 93.1355ZM62.8815 88.0198C62.6028 88.3974 62.3601 88.6581 62.0904 88.7211C61.9825 88.739 61.8116 88.748 61.6318 88.757C61.5779 88.2895 61.5329 87.7051 61.506 87.1027C61.8027 87.3095 62.1083 87.5073 62.1893 87.5343C62.2882 87.5702 62.5938 87.5792 62.9355 87.5972C62.9085 87.7501 62.8905 87.8939 62.8815 88.0198ZM64.2931 91.8678C64.1133 92.0027 63.2412 93.1715 63.2412 93.1715L63.1962 93.2075C62.6478 92.4522 61.9195 90.5462 61.7577 89.6112C61.7397 89.5123 61.7217 89.3864 61.7038 89.2425C62.0184 89.2695 62.3061 89.2785 62.3871 89.2605C62.486 89.2425 62.7647 89.0897 63.0704 88.9279C63.3491 89.737 63.8705 90.3664 64.4459 90.8069C64.3111 91.3374 64.4459 91.751 64.2931 91.8678ZM63.8705 93.2434C63.8256 93.2524 63.7806 93.2704 63.7267 93.2794V93.2075L63.9874 92.9737C64.2032 92.8388 65.0213 92.3443 65.2012 92.2634C65.3001 92.2185 65.5159 91.8948 65.6597 91.4812C66.4779 91.8948 67.1971 91.9308 67.4039 92.0566C67.9254 92.3623 67.4219 93.1625 67.4219 93.1625L67.2601 93.2794L67.2241 93.3603C66.9274 93.3423 66.6217 93.3154 66.37 93.2434C65.7586 93.0276 64.4549 93.0636 63.8705 93.2434ZM59.9056 77.1409C59.519 77.123 59.1504 77.087 58.8447 77.0241C58.2873 76.9162 58.1794 76.7993 58.1704 76.7813C58.1794 76.7633 58.2693 76.6375 58.8267 76.5296C59.2673 76.4486 59.8517 76.3947 60.454 76.3947C61.0654 76.3947 61.6498 76.4397 62.0904 76.5296C62.6388 76.6375 62.7287 76.7543 62.7377 76.7813C62.7197 76.7993 62.6208 76.9162 62.0544 77.0241C61.7217 77.087 61.3082 77.1319 60.8676 77.1499C60.8316 77.114 60.8137 77.078 60.7777 77.033C60.7327 77.069 60.7058 77.114 60.6788 77.1589C60.5979 77.1589 60.526 77.1679 60.445 77.1679C60.3282 77.1679 60.2023 77.1589 60.0854 77.1589C60.0584 77.114 60.0225 77.078 59.9865 77.042C59.9595 77.069 59.9326 77.105 59.9056 77.1409ZM59.6808 79.3347C59.474 79.2448 59.2043 79.2987 59.0874 79.4695C58.9885 79.6134 59.0245 79.7932 59.1773 79.9011C59.1054 79.991 59.0245 80.0899 58.9616 80.1798C58.8447 80.0989 58.7188 80.018 58.6019 79.9371C58.494 79.7213 58.6828 79.4606 58.8986 79.3976C59.1414 79.3167 59.537 78.993 59.7258 78.7503C59.8517 78.5884 60.2922 77.8782 60.1843 77.3657H60.6069C60.508 77.8782 60.9395 78.5884 61.0654 78.7503C61.2542 78.993 61.6588 79.3257 61.8926 79.3976C62.1083 79.4606 62.2971 79.7303 62.1893 79.9371C62.0724 80.018 61.9465 80.0989 61.8296 80.1798C61.7577 80.0899 61.6858 79.991 61.6139 79.9011C61.7577 79.7932 61.7937 79.6224 61.6948 79.4695C61.5779 79.2987 61.3172 79.2358 61.1014 79.3347C60.8856 79.4336 60.8137 79.6404 60.9305 79.8202C61.0294 79.964 61.2362 80.027 61.425 79.991C61.488 80.0989 61.5509 80.2248 61.5959 80.3596C61.1194 80.7103 60.6428 81.0789 60.4001 81.4835C60.1573 81.0789 59.6808 80.7103 59.2043 80.3596C59.2493 80.2338 59.3122 80.0989 59.3751 79.991C59.5639 80.036 59.7707 79.964 59.8696 79.8202C59.9685 79.6494 59.8876 79.4336 59.6808 79.3347ZM56.7678 92.9737L57.0375 93.2075V93.2614C57.0106 93.2524 56.9836 93.2524 56.9566 93.2434C56.3003 93.0456 55.2034 93.0097 54.4482 93.2434C54.2234 93.3154 53.8908 93.3513 53.5311 93.3603L53.4952 93.2794L53.3333 93.1625C53.3333 93.1625 52.8478 92.3623 53.3603 92.0566C53.5761 91.9308 54.2954 91.8948 55.1045 91.4812C55.2394 91.8948 55.4552 92.2185 55.5541 92.2634C55.7339 92.3443 56.552 92.8388 56.7678 92.9737ZM57.8287 87.5882C58.1794 87.5702 58.4851 87.5613 58.575 87.5253C58.6559 87.4983 58.9526 87.3005 59.2493 87.0937C59.2313 87.6961 59.1863 88.2805 59.1324 88.748C58.9526 88.748 58.7817 88.739 58.6739 88.7211C58.4131 88.6581 58.1704 88.3974 57.8827 88.0198C57.8827 87.8939 57.8647 87.7501 57.8287 87.5882ZM58.4041 89.2515C58.4761 89.2695 58.7638 89.2605 59.0784 89.2335C59.0605 89.3774 59.0335 89.5033 59.0155 89.6022C58.8537 90.5372 58.1254 92.4432 57.577 93.1985L57.523 93.1625C57.523 93.1625 56.6419 91.9937 56.4801 91.8588C56.3183 91.742 56.4621 91.3374 56.3363 90.7889C56.9027 90.3574 57.4331 89.728 57.7029 88.9099C58.0265 89.0897 58.2962 89.2335 58.4041 89.2515ZM73.5626 94.9876C73.4637 95.0056 73.3828 95.0236 73.2929 95.0506C72.8074 95.1944 71.7914 95.2394 71.0991 95.0506C70.5417 94.8887 69.2021 94.8528 68.5907 95.0506C68.0692 95.2214 67.0533 95.2484 66.388 95.0506C65.7676 94.8348 64.4639 94.8708 63.8795 95.0506C63.385 95.1944 62.3691 95.2394 61.6768 95.0506C61.1194 94.8887 59.7797 94.8528 59.1684 95.0506C58.6469 95.2214 57.6309 95.2484 56.9566 95.0506C56.3003 94.8528 55.2034 94.8168 54.4482 95.0506C53.9537 95.1944 52.9467 95.2394 52.2544 95.0506C51.697 94.8887 50.3574 94.8528 49.746 95.0506C49.2246 95.2214 48.2086 95.2484 47.5433 95.0506C47.4624 95.0236 47.3724 95.0146 47.2825 94.9966C46.8959 94.682 46.5543 94.3493 46.2306 93.9897C46.6532 93.9807 47.0757 94.0256 47.3904 94.1245C48.0468 94.3313 49.2785 94.3313 49.8989 94.1245C50.5012 93.9357 51.5442 93.9357 52.0926 94.1245C52.695 94.3313 53.9627 94.3313 54.601 94.1245C55.1764 93.9537 56.2104 93.9357 56.8038 94.1245C57.4601 94.3313 58.7008 94.3313 59.3212 94.1245C59.9236 93.9357 60.9665 93.9357 61.5149 94.1245C62.1173 94.3313 63.385 94.3313 64.0234 94.1245C64.5898 93.9447 65.6417 93.9357 66.2261 94.1155C66.8824 94.3223 68.1142 94.3223 68.7435 94.1245C69.3369 93.9357 70.3889 93.9357 70.9373 94.1245C71.5397 94.3313 72.8074 94.3313 73.4457 94.1245C73.7424 94.0346 74.174 93.9897 74.5965 93.9897C74.2819 94.3403 73.9402 94.673 73.5626 94.9876ZM70.6046 96.7678C69.9573 96.6869 69.0582 96.6959 68.5907 96.8577C68.0692 97.0285 67.0533 97.0555 66.388 96.8577C65.7676 96.6419 64.4639 96.6779 63.8795 96.8577C63.385 97.0016 62.3691 97.0465 61.6768 96.8577C61.1194 96.6959 59.7797 96.6599 59.1684 96.8577C58.6469 97.0285 57.6309 97.0555 56.9566 96.8577C56.3003 96.6599 55.2034 96.624 54.4482 96.8577C53.9537 97.0016 52.9467 97.0465 52.2544 96.8577C51.8139 96.7318 50.8878 96.6779 50.2135 96.7588C49.728 96.552 49.2695 96.3183 48.8379 96.0665C49.2425 96.0575 49.6381 96.0036 49.9078 95.9137C50.5102 95.7249 51.5532 95.7339 52.1016 95.9137C52.704 96.1205 53.9717 96.1205 54.61 95.9137C55.1854 95.7429 56.2194 95.7339 56.8128 95.9137C57.4691 96.1205 58.7098 96.1205 59.3302 95.9137C59.9326 95.7249 60.9755 95.7339 61.5239 95.9137C62.1263 96.1205 63.394 96.1205 64.0324 95.9137C64.5988 95.7339 65.6507 95.7339 66.2351 95.9047C66.8914 96.1115 68.1232 96.1115 68.7525 95.9137C69.3459 95.7249 70.3978 95.7339 70.9463 95.9137C71.207 96.0036 71.5936 96.0486 71.9982 96.0665C71.5577 96.3273 71.0901 96.552 70.6046 96.7678ZM60.4181 98.512C57.9276 98.512 55.7159 98.2873 53.7559 97.8647C54.0796 97.8467 54.3853 97.8018 54.61 97.7298C55.1854 97.559 56.2194 97.541 56.8128 97.7298C57.4691 97.9366 58.7098 97.9276 59.3302 97.7298C59.9326 97.541 60.9755 97.541 61.5239 97.7298C62.1263 97.9276 63.394 97.9366 64.0324 97.7298C64.5988 97.541 65.6507 97.541 66.2351 97.7208C66.4689 97.7928 66.7746 97.8377 67.0892 97.8647C65.1382 98.2873 62.9175 98.512 60.4181 98.512ZM0 0V89.4853H40.8811C41.3037 92.713 42.886 95.5361 45.4754 97.55C48.8829 100.211 53.9087 101.56 60.4181 101.56C66.9184 101.56 71.9532 100.211 75.3608 97.55C77.9411 95.5361 79.5325 92.713 79.955 89.4853H120V0H0Z" fill="white"/>
</svg>
