<?xml version="1.0" encoding="utf-8"?>
<!-- Generator: Adobe Illustrator 24.0.3, SVG Export Plug-In . SVG Version: 6.00 Build 0)  -->
<svg version="1.1" id="Layer_1" xmlns="http://www.w3.org/2000/svg" xmlns:xlink="http://www.w3.org/1999/xlink" x="0px" y="0px"
	 viewBox="0 0 1425.68 999" style="enable-background:new 0 0 1425.68 999;" xml:space="preserve">
<style type="text/css">
	.st0-24{opacity:0.3;}
	.st1-24{fill:#FFFFFF;filter:url(#Adobe_OpacityMaskFilter);}
	.st2-24{mask:url(#path-1-inside-1_1044_17338_1_);fill:none;stroke:#233E94;stroke-width:2;}
	.st3-24{opacity:0.5;}
	.st4-24{fill:none;stroke:#ED1C24;stroke-width:0.75;}
	.st5-24{fill:none;stroke:#ED1C24;stroke-width:0.25;}
	.st6-24{font-family:'Futura-Medium';}
	.st7-24{font-size:12px;}
</style>
<g class="st0-24">
	<defs>
		<filter id="Adobe_OpacityMaskFilter" filterUnits="userSpaceOnUse" x="99.73" y="99.73" width="1226.22" height="799.54">
			<feColorMatrix  type="matrix" values="1 0 0 0 0  0 1 0 0 0  0 0 1 0 0  0 0 0 1 0"/>
		</filter>
	</defs>
	<mask maskUnits="userSpaceOnUse" x="99.73" y="99.73" width="1226.22" height="799.54" id="path-1-inside-1_1044_17338_1_">
		<path class="st1-24" d="M722.8,191.49l13.81-1.1l14.17-12.34h19.51l11.41-4.42v9.21l-5.34,10.12l2.76,0.18l-6.44,7.55l9.57,10.48
			L755,236.59l-6.25,0.36l-11.42-8.65v-7.19l-7.35-8.1v-13.8l-7.35-6.26L722.8,191.49z M674.95,406.33v16.75l19.69,20.06h-4.97
			l-1.1,16.57h-43.06v-38.1l23-23.56L674.95,406.33z M347.35,149.33l37.73-13.61h12.88l23.55-23.94h42.15h-0.37v15.83l-27.61,27.62
			v33.31l-22.08,23.19v34.43h-21.35l-9.38-12.89l7.73-16.76l-43.25-37.18L347.35,149.33L347.35,149.33z M471.4,343.93l-13.62,11.95
			v39.41h-1.11l-24.66-30.93v-32.04l-32.38-32.58l-16.57,15.83l-13.25-12.7l-9.76,8.1l-28.89-24.3h98.09l24.85,22.09v15.47
			L471.4,343.93z M327.29,205.85l26.69-0.18l12.51,9.39l-8.47,6.07l32.21,37.93h23.01l11.6,9.2H358.4l-31.28-32.76L327.29,205.85z
			 M298.57,235.12l11.96,13.44v23.38h-8.28l-28.34-27.99l-0.55-8.84H298.57z M244.28,275.62h39.02l11.6,11.05h14.72l40.86,41.79
			l-2.76,4.24h-14.36l-7.72-7.73l-7.73,7.73h-18.96l-19.33-20.25h-10.67l-24.67-24.67V275.62z M555.32,680.62v33.68l-51.53,52.84
			v12.88l-49.69,52.84v20.8l-9.21,6.8v36.27l-18.4-19.69v-58.91l5.52-6.07v-36.83l3.69-6.8v-32.58l-38.65-39.2v-39.22l10.67-9.75
			l-22.26-23.94h-27.98l-20.25-22.08h-6.81l-53-53.02v-12.34l-27.61-25.79v-53.37l-50.07-52.65h-25.03l-28.34,17.68l-32.77-31.85
			v-27.07l-12.88-12.14v-30.01l34.04-8.46h23.38l9.2,9.19h27.05l10.49,7.37h75.65l17.67,20.25h20.25l7.92-7.92l7.92,7.92h22.09
			l13.44-21.17l11.22,6.44l11.6-14.91l8.09,13.62v16.02l-40.48,41.05v41.61h26.69l24.85,21.35V429.7l12.88-12.88l-9.2-9.2v-17.87
			h22.46l62.57,63.14l-46.74,47.32H435.7l-14.72,14.73v9.76l-25.21,23.94v6.07l3.87,6.26l-0.18,11.77l-5.52,0.18l-6.62-11.96
			l-43.8,0.53v22.1l18.6,19.69l18.21-3.68v2.94l32.76,32.04h85.95l42.88,46.01h13.43V680.62z M583.48,341.89l-41.04,16.01v4.97
			L531.4,374.3v32.04l-29.45-27.62v-68.49l-18.4-17.68v-32.77l-11.79-13.62h-37.91v-35.71l11.04-13.25v-39.22l33.31-0.18
			l28.16-27.61h17.49l29.81-29.45h31.47l29.26,24.11l-8.1,3.13l10.85,14.17l12.52-6.44h11.05l15.82,15.65l-36.81,24.11v46.57
			l-5.52,7.18v36.27l-3.68,12.7l5.89,37.37l-19.32,26.33H583.48L583.48,341.89z M601.33,367.84v-11.78l23.01-1.46h13.81v4.95
			l-0.92,24.49h-19.88L601.33,367.84z M858.98,726.27l-11.04,10.13v28.9h-9.2v-47.32l20.23-20.98V726.27z M827.7,669.95v44.73
			l-20.25,17.12v15.84l-7.35,7.92v12.87l-7.55,31.86h-25.2L732,766.23v-29.47l-9.2-9.02v-53.2l-9.2-9.2v-10.5h-52.63l-35.7-34.42
			v-50.26l52.82-27.61h13.06l8.83-9.2h20.98v11.04h22.27l10.86,12.9v-5.53h34.6l24.28,27.61v15.28l39.57,38.1h12.35L827.7,669.95z
			 M1067.5,694.62h-29.99v-5.9l-18.96-19.13v-12.34L1041,679.7h23.01l7.74,7.73L1067.5,694.62z M1205.55,837.1l-5.9-7.92l0.55-5.7
			h7.91L1205.55,837.1z M1189.52,815.01l-5.14-4.97l0.37-11.61h-13.43l-9.76-11.05h-22.82l-8.46,11.05h-15.84l-5.14,1.85h-22.1
			v-29.83l-1.1-3.68l5.34-16.58l11.98-5.34h9.56l27.98-27.6h19.87v-5.71l18.4,19.51v-20.98h5.53l11.05,7.36v7l18.39,22.46l0.2,68.3
			h-24.86v-0.18H1189.52z M1082.79,678.41l33.86-29.09l-2.4,42.89l-13.97,4.97L1082.79,678.41z M1187.13,504.44h-10.12l-4.24,5.9
			l4.43,6.44l0.18,16.58l-18.96,14.17v3.67l-3.87,2.39l-6.25-4.96l0.17-11.97l19.34-15.1l-0.17-20.8l12.49-14.36l14.74,8.65
			L1187.13,504.44z M1206.47,702.71h-30.02l-15.08-15.83l5.53-6.25h34.21l5.72,4.42L1206.47,702.71z M1304.38,362.51v7.55
			l-76.02,80.44l3.5-30.19l16-21.17l-19.5,16.57h-34.96l-24.86,25.77h7v26.33l-39.02,44.91l12.16,8.65l-13.08,10.49l-11.59-6.63
			v-5.14l-13.25-11.41l-10.67,9.02v11.41l9.2,7.36v23.75l-8.28,32.4h-26.88l-15.28,3.31l15.46,17.3v6.99l-12.51,21.18l-11.4-14.17
			v17.12l3.86,5.89l-1.11,11.05l-10.67-0.91l-3.68-13.81l-0.38-30.19l-25.03-25.95h-7.36l-28.16,23.38l-0.56,7.36l-9.38,11.41
			l-15.46-14.91l-0.38-17.86l-24.65-18.59H899.3l11.05,10.67l-32.02,31.67H856.8l-34.61-32.94v-14.54l-28.16-29.45l13.62-11.42
			h-15.82l-40.86-46.2l-8.1-5.34v8.46l11.6,12.16v8.65l-6.99,3.69l-18.6-12.72H716l-29.63,29.46h-15.65l-19.69-19.89v-9.57h29.45
			v-28.71l38.46-30.19h39.75l8.46-32.03v-17.12h-5.51v-21.73l5.51-6.8l-22.09,6.44v60.19h-16.74v-14.71h-25.77v-50.8l77.67-54.13
			h23.18l24.28,25.22v6.99l-11.95,10.86L800.1,343v11.24l22.27,20.62l52.09-40.32h29.62l38.64-36.81h22.1l47.3-46.03h29.26
			l23.01-24.11l10.49,11.24h15.08l-0.17,30.37l-16.38,17.49h55.57l16.19,16.56h80.99l26.33,25.77h29.99l4.25-5.52h28.52l9.48,18.71
			L1304.38,362.51z"/>
	</mask>
	<path class="st2-24" d="M722.8,191.49l13.81-1.1l14.17-12.34h19.51l11.41-4.42v9.21l-5.34,10.12l2.76,0.18l-6.44,7.55l9.57,10.48
		L755,236.59l-6.25,0.36l-11.42-8.65v-7.19l-7.35-8.1v-13.8l-7.35-6.26L722.8,191.49z M674.95,406.33v16.75l19.69,20.06h-4.97
		l-1.1,16.57h-43.06v-38.1l23-23.56L674.95,406.33z M347.35,149.33l37.73-13.61h12.88l23.55-23.94h42.15h-0.37v15.83l-27.61,27.62
		v33.31l-22.08,23.19v34.43h-21.35l-9.38-12.89l7.73-16.76l-43.25-37.18L347.35,149.33L347.35,149.33z M471.4,343.93l-13.62,11.95
		v39.41h-1.11l-24.66-30.93v-32.04l-32.38-32.58l-16.57,15.83l-13.25-12.7l-9.76,8.1l-28.89-24.3h98.09l24.85,22.09v15.47
		L471.4,343.93z M327.29,205.85l26.69-0.18l12.51,9.39l-8.47,6.07l32.21,37.93h23.01l11.6,9.2H358.4l-31.28-32.76L327.29,205.85z
		 M298.57,235.12l11.96,13.44v23.38h-8.28l-28.34-27.99l-0.55-8.84H298.57z M244.28,275.62h39.02l11.6,11.05h14.72l40.86,41.79
		l-2.76,4.24h-14.36l-7.72-7.73l-7.73,7.73h-18.96l-19.33-20.25h-10.67l-24.67-24.67V275.62z M555.32,680.62v33.68l-51.53,52.84
		v12.88l-49.69,52.84v20.8l-9.21,6.8v36.27l-18.4-19.69v-58.91l5.52-6.07v-36.83l3.69-6.8v-32.58l-38.65-39.2v-39.22l10.67-9.75
		l-22.26-23.94h-27.98l-20.25-22.08h-6.81l-53-53.02v-12.34l-27.61-25.79v-53.37l-50.07-52.65h-25.03l-28.34,17.68l-32.77-31.85
		v-27.07l-12.88-12.14v-30.01l34.04-8.46h23.38l9.2,9.19h27.05l10.49,7.37h75.65l17.67,20.25h20.25l7.92-7.92l7.92,7.92h22.09
		l13.44-21.17l11.22,6.44l11.6-14.91l8.09,13.62v16.02l-40.48,41.05v41.61h26.69l24.85,21.35V429.7l12.88-12.88l-9.2-9.2v-17.87
		h22.46l62.57,63.14l-46.74,47.32H435.7l-14.72,14.73v9.76l-25.21,23.94v6.07l3.87,6.26l-0.18,11.77l-5.52,0.18l-6.62-11.96
		l-43.8,0.53v22.1l18.6,19.69l18.21-3.68v2.94l32.76,32.04h85.95l42.88,46.01h13.43V680.62z M583.48,341.89l-41.04,16.01v4.97
		L531.4,374.3v32.04l-29.45-27.62v-68.49l-18.4-17.68v-32.77l-11.79-13.62h-37.91v-35.71l11.04-13.25v-39.22l33.31-0.18l28.16-27.61
		h17.49l29.81-29.45h31.47l29.26,24.11l-8.1,3.13l10.85,14.17l12.52-6.44h11.05l15.82,15.65l-36.81,24.11v46.57l-5.52,7.18v36.27
		l-3.68,12.7l5.89,37.37l-19.32,26.33H583.48L583.48,341.89z M601.33,367.84v-11.78l23.01-1.46h13.81v4.95l-0.92,24.49h-19.88
		L601.33,367.84z M858.98,726.27l-11.04,10.13v28.9h-9.2v-47.32l20.23-20.98V726.27z M827.7,669.95v44.73l-20.25,17.12v15.84
		l-7.35,7.92v12.87l-7.55,31.86h-25.2L732,766.23v-29.47l-9.2-9.02v-53.2l-9.2-9.2v-10.5h-52.63l-35.7-34.42v-50.26l52.82-27.61
		h13.06l8.83-9.2h20.98v11.04h22.27l10.86,12.9v-5.53h34.6l24.28,27.61v15.28l39.57,38.1h12.35L827.7,669.95z M1067.5,694.62h-29.99
		v-5.9l-18.96-19.13v-12.34L1041,679.7h23.01l7.74,7.73L1067.5,694.62z M1205.55,837.1l-5.9-7.92l0.55-5.7h7.91L1205.55,837.1z
		 M1189.52,815.01l-5.14-4.97l0.37-11.61h-13.43l-9.76-11.05h-22.82l-8.46,11.05h-15.84l-5.14,1.85h-22.1v-29.83l-1.1-3.68
		l5.34-16.58l11.98-5.34h9.56l27.98-27.6h19.87v-5.71l18.4,19.51v-20.98h5.53l11.05,7.36v7l18.39,22.46l0.2,68.3h-24.86v-0.18
		H1189.52z M1082.79,678.41l33.86-29.09l-2.4,42.89l-13.97,4.97L1082.79,678.41z M1187.13,504.44h-10.12l-4.24,5.9l4.43,6.44
		l0.18,16.58l-18.96,14.17v3.67l-3.87,2.39l-6.25-4.96l0.17-11.97l19.34-15.1l-0.17-20.8l12.49-14.36l14.74,8.65L1187.13,504.44z
		 M1206.47,702.71h-30.02l-15.08-15.83l5.53-6.25h34.21l5.72,4.42L1206.47,702.71z M1304.38,362.51v7.55l-76.02,80.44l3.5-30.19
		l16-21.17l-19.5,16.57h-34.96l-24.86,25.77h7v26.33l-39.02,44.91l12.16,8.65l-13.08,10.49l-11.59-6.63v-5.14l-13.25-11.41
		l-10.67,9.02v11.41l9.2,7.36v23.75l-8.28,32.4h-26.88l-15.28,3.31l15.46,17.3v6.99l-12.51,21.18l-11.4-14.17v17.12l3.86,5.89
		l-1.11,11.05l-10.67-0.91l-3.68-13.81l-0.38-30.19l-25.03-25.95h-7.36l-28.16,23.38l-0.56,7.36l-9.38,11.41l-15.46-14.91
		l-0.38-17.86l-24.65-18.59H899.3l11.05,10.67l-32.02,31.67H856.8l-34.61-32.94v-14.54l-28.16-29.45l13.62-11.42h-15.82l-40.86-46.2
		l-8.1-5.34v8.46l11.6,12.16v8.65l-6.99,3.69l-18.6-12.72H716l-29.63,29.46h-15.65l-19.69-19.89v-9.57h29.45v-28.71l38.46-30.19
		h39.75l8.46-32.03v-17.12h-5.51v-21.73l5.51-6.8l-22.09,6.44v60.19h-16.74v-14.71h-25.77v-50.8l77.67-54.13h23.18l24.28,25.22v6.99
		l-11.95,10.86L800.1,343v11.24l22.27,20.62l52.09-40.32h29.62l38.64-36.81h22.1l47.3-46.03h29.26l23.01-24.11l10.49,11.24h15.08
		l-0.17,30.37l-16.38,17.49h55.57l16.19,16.56h80.99l26.33,25.77h29.99l4.25-5.52h28.52l9.48,18.71L1304.38,362.51z"/>
</g>
<g class="st3-24">
	<g>
		<g>
			<line class="st4-24" x1="100.73" y1="65.05" x2="100.73" y2="934.95"/>
			<line class="st4-24" x1="223.13" y1="65.05" x2="223.13" y2="934.95"/>
			<line class="st4-24" x1="345.53" y1="65.05" x2="345.53" y2="934.95"/>
			<line class="st4-24" x1="467.93" y1="65.05" x2="467.93" y2="934.95"/>
			<line class="st4-24" x1="590.33" y1="65.05" x2="590.33" y2="934.95"/>
			<line class="st4-24" x1="712.73" y1="65.05" x2="712.73" y2="934.95"/>
			<line class="st4-24" x1="835.13" y1="65.05" x2="835.13" y2="934.95"/>
			<line class="st4-24" x1="957.53" y1="65.05" x2="957.53" y2="934.95"/>
			<line class="st4-24" x1="1079.93" y1="65.05" x2="1079.93" y2="934.95"/>
			<line class="st4-24" x1="1202.33" y1="65.05" x2="1202.33" y2="934.95"/>
			<line class="st4-24" x1="1324.73" y1="65.05" x2="1324.73" y2="934.95"/>
		</g>
		<g>
			<line class="st5-24" x1="100.73" y1="65.05" x2="100.73" y2="934.95"/>
			<line class="st5-24" x1="112.97" y1="65.05" x2="112.97" y2="934.94"/>
			<line class="st5-24" x1="125.21" y1="65.04" x2="125.21" y2="934.94"/>
			<line class="st5-24" x1="137.45" y1="65.04" x2="137.45" y2="934.93"/>
			<line class="st5-24" x1="149.69" y1="65.03" x2="149.69" y2="934.93"/>
			<line class="st5-24" x1="161.93" y1="65.03" x2="161.93" y2="934.92"/>
			<line class="st5-24" x1="174.17" y1="65.02" x2="174.17" y2="934.92"/>
			<line class="st5-24" x1="186.41" y1="65.02" x2="186.41" y2="934.91"/>
			<line class="st5-24" x1="198.65" y1="65.01" x2="198.65" y2="934.91"/>
			<line class="st5-24" x1="210.89" y1="65.01" x2="210.89" y2="934.9"/>
			<line class="st5-24" x1="223.13" y1="65" x2="223.13" y2="934.9"/>
			<line class="st5-24" x1="235.37" y1="65" x2="235.37" y2="934.89"/>
			<line class="st5-24" x1="247.61" y1="64.99" x2="247.61" y2="934.89"/>
			<line class="st5-24" x1="259.85" y1="64.99" x2="259.85" y2="934.88"/>
			<line class="st5-24" x1="272.09" y1="64.98" x2="272.09" y2="934.88"/>
			<line class="st5-24" x1="284.33" y1="64.98" x2="284.33" y2="934.87"/>
			<line class="st5-24" x1="296.57" y1="64.97" x2="296.57" y2="934.87"/>
			<line class="st5-24" x1="308.81" y1="64.97" x2="308.81" y2="934.86"/>
			<line class="st5-24" x1="321.05" y1="64.96" x2="321.05" y2="934.86"/>
			<line class="st5-24" x1="333.29" y1="64.96" x2="333.29" y2="934.85"/>
			<line class="st5-24" x1="345.53" y1="64.95" x2="345.53" y2="934.85"/>
			<line class="st5-24" x1="357.77" y1="64.95" x2="357.77" y2="934.84"/>
			<line class="st5-24" x1="370.01" y1="64.94" x2="370.01" y2="934.84"/>
			<line class="st5-24" x1="382.25" y1="64.94" x2="382.25" y2="934.83"/>
			<line class="st5-24" x1="394.49" y1="64.93" x2="394.49" y2="934.83"/>
			<line class="st5-24" x1="406.73" y1="64.93" x2="406.73" y2="934.82"/>
			<line class="st5-24" x1="418.97" y1="64.92" x2="418.97" y2="934.82"/>
			<line class="st5-24" x1="431.21" y1="64.92" x2="431.21" y2="934.81"/>
			<line class="st5-24" x1="443.45" y1="64.91" x2="443.45" y2="934.81"/>
			<line class="st5-24" x1="455.69" y1="64.91" x2="455.69" y2="934.8"/>
			<line class="st5-24" x1="467.93" y1="64.9" x2="467.93" y2="934.8"/>
			<line class="st5-24" x1="480.17" y1="64.9" x2="480.17" y2="934.79"/>
			<line class="st5-24" x1="492.41" y1="64.89" x2="492.41" y2="934.79"/>
			<line class="st5-24" x1="504.65" y1="64.89" x2="504.65" y2="934.78"/>
			<line class="st5-24" x1="516.89" y1="64.88" x2="516.89" y2="934.78"/>
			<line class="st5-24" x1="529.13" y1="64.88" x2="529.13" y2="934.77"/>
			<line class="st5-24" x1="541.37" y1="64.87" x2="541.37" y2="934.77"/>
			<line class="st5-24" x1="553.61" y1="64.87" x2="553.61" y2="934.76"/>
			<line class="st5-24" x1="565.85" y1="64.86" x2="565.85" y2="934.76"/>
			<line class="st5-24" x1="578.09" y1="64.86" x2="578.09" y2="934.75"/>
			<line class="st5-24" x1="590.33" y1="64.85" x2="590.33" y2="934.75"/>
			<line class="st5-24" x1="602.57" y1="64.85" x2="602.57" y2="934.74"/>
			<line class="st5-24" x1="614.81" y1="64.84" x2="614.81" y2="934.74"/>
			<line class="st5-24" x1="627.05" y1="64.84" x2="627.05" y2="934.73"/>
			<line class="st5-24" x1="639.29" y1="64.83" x2="639.29" y2="934.73"/>
			<line class="st5-24" x1="651.53" y1="64.83" x2="651.53" y2="934.72"/>
			<line class="st5-24" x1="663.77" y1="64.82" x2="663.77" y2="934.72"/>
			<line class="st5-24" x1="676.01" y1="64.82" x2="676.01" y2="934.71"/>
			<line class="st5-24" x1="688.25" y1="64.81" x2="688.25" y2="934.71"/>
			<line class="st5-24" x1="700.49" y1="64.81" x2="700.49" y2="934.7"/>
			<line class="st5-24" x1="712.73" y1="64.8" x2="712.73" y2="934.7"/>
			<line class="st5-24" x1="724.97" y1="64.8" x2="724.97" y2="934.69"/>
			<line class="st5-24" x1="737.21" y1="64.79" x2="737.21" y2="934.69"/>
			<line class="st5-24" x1="749.45" y1="64.79" x2="749.45" y2="934.68"/>
			<line class="st5-24" x1="761.69" y1="64.78" x2="761.69" y2="934.68"/>
			<line class="st5-24" x1="773.93" y1="64.78" x2="773.93" y2="934.67"/>
			<line class="st5-24" x1="786.17" y1="64.77" x2="786.17" y2="934.67"/>
			<line class="st5-24" x1="798.41" y1="64.77" x2="798.41" y2="934.66"/>
			<line class="st5-24" x1="810.65" y1="64.76" x2="810.65" y2="934.66"/>
			<line class="st5-24" x1="822.89" y1="64.76" x2="822.89" y2="934.65"/>
			<line class="st5-24" x1="835.13" y1="64.75" x2="835.13" y2="934.65"/>
			<line class="st5-24" x1="847.37" y1="64.75" x2="847.37" y2="934.64"/>
			<line class="st5-24" x1="859.61" y1="64.74" x2="859.61" y2="934.64"/>
			<line class="st5-24" x1="871.85" y1="64.74" x2="871.85" y2="934.63"/>
			<line class="st5-24" x1="884.09" y1="64.73" x2="884.09" y2="934.63"/>
			<line class="st5-24" x1="896.33" y1="64.73" x2="896.33" y2="934.62"/>
			<line class="st5-24" x1="908.57" y1="64.72" x2="908.57" y2="934.62"/>
			<line class="st5-24" x1="920.81" y1="64.72" x2="920.81" y2="934.61"/>
			<line class="st5-24" x1="933.05" y1="64.71" x2="933.05" y2="934.61"/>
			<line class="st5-24" x1="945.29" y1="64.71" x2="945.29" y2="934.6"/>
			<line class="st5-24" x1="957.53" y1="64.7" x2="957.53" y2="934.6"/>
			<line class="st5-24" x1="969.77" y1="64.7" x2="969.77" y2="934.59"/>
			<line class="st5-24" x1="982.01" y1="64.69" x2="982.01" y2="934.59"/>
			<line class="st5-24" x1="994.25" y1="64.69" x2="994.25" y2="934.58"/>
			<line class="st5-24" x1="1006.49" y1="64.68" x2="1006.49" y2="934.58"/>
			<line class="st5-24" x1="1018.73" y1="64.68" x2="1018.73" y2="934.57"/>
			<line class="st5-24" x1="1030.97" y1="64.67" x2="1030.97" y2="934.57"/>
			<line class="st5-24" x1="1043.21" y1="64.67" x2="1043.21" y2="934.56"/>
			<line class="st5-24" x1="1055.45" y1="64.66" x2="1055.45" y2="934.56"/>
			<line class="st5-24" x1="1067.69" y1="64.66" x2="1067.69" y2="934.55"/>
			<line class="st5-24" x1="1079.93" y1="64.65" x2="1079.93" y2="934.55"/>
			<line class="st5-24" x1="1092.17" y1="64.65" x2="1092.17" y2="934.54"/>
			<line class="st5-24" x1="1104.41" y1="64.64" x2="1104.41" y2="934.54"/>
			<line class="st5-24" x1="1116.65" y1="64.64" x2="1116.65" y2="934.53"/>
			<line class="st5-24" x1="1128.89" y1="64.63" x2="1128.89" y2="934.53"/>
			<line class="st5-24" x1="1141.13" y1="64.63" x2="1141.13" y2="934.52"/>
			<line class="st5-24" x1="1153.37" y1="64.62" x2="1153.37" y2="934.52"/>
			<line class="st5-24" x1="1165.61" y1="64.62" x2="1165.61" y2="934.51"/>
			<line class="st5-24" x1="1177.85" y1="64.61" x2="1177.85" y2="934.51"/>
			<line class="st5-24" x1="1190.09" y1="64.61" x2="1190.09" y2="934.5"/>
			<line class="st5-24" x1="1202.33" y1="64.6" x2="1202.33" y2="934.5"/>
			<line class="st5-24" x1="1214.57" y1="64.6" x2="1214.57" y2="934.49"/>
			<line class="st5-24" x1="1226.81" y1="64.59" x2="1226.81" y2="934.49"/>
			<line class="st5-24" x1="1239.05" y1="64.59" x2="1239.05" y2="934.48"/>
			<line class="st5-24" x1="1251.29" y1="64.58" x2="1251.29" y2="934.48"/>
			<line class="st5-24" x1="1263.53" y1="64.58" x2="1263.53" y2="934.47"/>
			<line class="st5-24" x1="1275.77" y1="64.57" x2="1275.77" y2="934.47"/>
			<line class="st5-24" x1="1288.01" y1="64.57" x2="1288.01" y2="934.46"/>
			<line class="st5-24" x1="1300.25" y1="64.56" x2="1300.25" y2="934.46"/>
			<line class="st5-24" x1="1312.49" y1="64.56" x2="1312.49" y2="934.45"/>
			<line class="st5-24" x1="1324.73" y1="64.55" x2="1324.73" y2="934.45"/>
		</g>
	</g>
	<g>
		<g>
			<line class="st4-24" x1="66.77" y1="899.27" x2="1359.92" y2="899.27"/>
			<line class="st4-24" x1="66.77" y1="819.41" x2="1359.92" y2="819.41"/>
			<line class="st4-24" x1="66.77" y1="739.56" x2="1359.92" y2="739.56"/>
			<line class="st4-24" x1="66.77" y1="659.71" x2="1359.92" y2="659.71"/>
			<line class="st4-24" x1="66.77" y1="579.85" x2="1359.92" y2="579.85"/>
			<line class="st4-24" x1="66.77" y1="500" x2="1359.92" y2="500"/>
			<line class="st4-24" x1="66.77" y1="420.15" x2="1359.92" y2="420.15"/>
			<line class="st4-24" x1="66.77" y1="340.29" x2="1359.92" y2="340.29"/>
			<line class="st4-24" x1="66.77" y1="260.44" x2="1359.92" y2="260.44"/>
			<line class="st4-24" x1="66.77" y1="180.59" x2="1359.92" y2="180.59"/>
			<line class="st4-24" x1="66.77" y1="100.73" x2="1359.92" y2="100.73"/>
		</g>
		<g>
			<line class="st5-24" x1="67.14" y1="899.27" x2="1360.29" y2="899.27"/>
			<line class="st5-24" x1="67.13" y1="891.28" x2="1360.28" y2="891.28"/>
			<line class="st5-24" x1="67.12" y1="883.3" x2="1360.27" y2="883.3"/>
			<line class="st5-24" x1="67.12" y1="875.31" x2="1360.27" y2="875.31"/>
			<line class="st5-24" x1="67.11" y1="867.33" x2="1360.26" y2="867.33"/>
			<line class="st5-24" x1="67.1" y1="859.34" x2="1360.25" y2="859.34"/>
			<line class="st5-24" x1="67.09" y1="851.36" x2="1360.25" y2="851.36"/>
			<line class="st5-24" x1="67.09" y1="843.37" x2="1360.24" y2="843.37"/>
			<line class="st5-24" x1="67.08" y1="835.38" x2="1360.23" y2="835.38"/>
			<line class="st5-24" x1="67.07" y1="827.4" x2="1360.22" y2="827.4"/>
			<line class="st5-24" x1="67.06" y1="819.41" x2="1360.22" y2="819.41"/>
			<line class="st5-24" x1="67.06" y1="811.43" x2="1360.21" y2="811.43"/>
			<line class="st5-24" x1="67.05" y1="803.44" x2="1360.2" y2="803.44"/>
			<line class="st5-24" x1="67.04" y1="795.46" x2="1360.19" y2="795.46"/>
			<line class="st5-24" x1="67.03" y1="787.47" x2="1360.19" y2="787.47"/>
			<line class="st5-24" x1="67.03" y1="779.49" x2="1360.18" y2="779.49"/>
			<line class="st5-24" x1="67.02" y1="771.5" x2="1360.17" y2="771.5"/>
			<line class="st5-24" x1="67.01" y1="763.52" x2="1360.16" y2="763.52"/>
			<line class="st5-24" x1="67" y1="755.53" x2="1360.16" y2="755.53"/>
			<line class="st5-24" x1="67" y1="747.55" x2="1360.15" y2="747.55"/>
			<line class="st5-24" x1="66.99" y1="739.56" x2="1360.14" y2="739.56"/>
			<line class="st5-24" x1="66.98" y1="731.58" x2="1360.13" y2="731.58"/>
			<line class="st5-24" x1="66.97" y1="723.59" x2="1360.13" y2="723.59"/>
			<line class="st5-24" x1="66.97" y1="715.6" x2="1360.12" y2="715.6"/>
			<line class="st5-24" x1="66.96" y1="707.62" x2="1360.11" y2="707.62"/>
			<line class="st5-24" x1="66.95" y1="699.63" x2="1360.1" y2="699.63"/>
			<line class="st5-24" x1="66.94" y1="691.65" x2="1360.1" y2="691.65"/>
			<line class="st5-24" x1="66.94" y1="683.66" x2="1360.09" y2="683.66"/>
			<line class="st5-24" x1="66.93" y1="675.68" x2="1360.08" y2="675.68"/>
			<line class="st5-24" x1="66.92" y1="667.69" x2="1360.07" y2="667.69"/>
			<line class="st5-24" x1="66.91" y1="659.71" x2="1360.07" y2="659.71"/>
			<line class="st5-24" x1="66.91" y1="651.72" x2="1360.06" y2="651.72"/>
			<line class="st5-24" x1="66.9" y1="643.74" x2="1360.05" y2="643.74"/>
			<line class="st5-24" x1="66.89" y1="635.75" x2="1360.04" y2="635.75"/>
			<line class="st5-24" x1="66.88" y1="627.77" x2="1360.04" y2="627.77"/>
			<line class="st5-24" x1="66.88" y1="619.78" x2="1360.03" y2="619.78"/>
			<line class="st5-24" x1="66.87" y1="611.79" x2="1360.02" y2="611.79"/>
			<line class="st5-24" x1="66.86" y1="603.81" x2="1360.01" y2="603.81"/>
			<line class="st5-24" x1="66.86" y1="595.82" x2="1360.01" y2="595.82"/>
			<line class="st5-24" x1="66.85" y1="587.84" x2="1360" y2="587.84"/>
			<line class="st5-24" x1="66.84" y1="579.85" x2="1359.99" y2="579.85"/>
			<line class="st5-24" x1="66.83" y1="571.87" x2="1359.99" y2="571.87"/>
			<line class="st5-24" x1="66.83" y1="563.88" x2="1359.98" y2="563.88"/>
			<line class="st5-24" x1="66.82" y1="555.9" x2="1359.97" y2="555.9"/>
			<line class="st5-24" x1="66.81" y1="547.91" x2="1359.96" y2="547.91"/>
			<line class="st5-24" x1="66.8" y1="539.93" x2="1359.96" y2="539.93"/>
			<line class="st5-24" x1="66.8" y1="531.94" x2="1359.95" y2="531.94"/>
			<line class="st5-24" x1="66.79" y1="523.96" x2="1359.94" y2="523.96"/>
			<line class="st5-24" x1="66.78" y1="515.97" x2="1359.93" y2="515.97"/>
			<line class="st5-24" x1="66.77" y1="507.99" x2="1359.93" y2="507.99"/>
			<line class="st5-24" x1="66.77" y1="500" x2="1359.92" y2="500"/>
			<line class="st5-24" x1="66.76" y1="492.01" x2="1359.91" y2="492.01"/>
			<line class="st5-24" x1="66.75" y1="484.03" x2="1359.9" y2="484.03"/>
			<line class="st5-24" x1="66.74" y1="476.04" x2="1359.9" y2="476.04"/>
			<line class="st5-24" x1="66.74" y1="468.06" x2="1359.89" y2="468.06"/>
			<line class="st5-24" x1="66.73" y1="460.07" x2="1359.88" y2="460.07"/>
			<line class="st5-24" x1="66.72" y1="452.09" x2="1359.87" y2="452.09"/>
			<line class="st5-24" x1="66.71" y1="444.1" x2="1359.87" y2="444.1"/>
			<line class="st5-24" x1="66.71" y1="436.12" x2="1359.86" y2="436.12"/>
			<line class="st5-24" x1="66.7" y1="428.13" x2="1359.85" y2="428.13"/>
			<line class="st5-24" x1="66.69" y1="420.15" x2="1359.84" y2="420.15"/>
			<line class="st5-24" x1="66.68" y1="412.16" x2="1359.84" y2="412.16"/>
			<line class="st5-24" x1="66.68" y1="404.18" x2="1359.83" y2="404.18"/>
			<line class="st5-24" x1="66.67" y1="396.19" x2="1359.82" y2="396.19"/>
			<line class="st5-24" x1="66.66" y1="388.2" x2="1359.81" y2="388.2"/>
			<line class="st5-24" x1="66.65" y1="380.22" x2="1359.81" y2="380.22"/>
			<line class="st5-24" x1="66.65" y1="372.23" x2="1359.8" y2="372.23"/>
			<line class="st5-24" x1="66.64" y1="364.25" x2="1359.79" y2="364.25"/>
			<line class="st5-24" x1="66.63" y1="356.26" x2="1359.78" y2="356.26"/>
			<line class="st5-24" x1="66.62" y1="348.28" x2="1359.78" y2="348.28"/>
			<line class="st5-24" x1="66.62" y1="340.29" x2="1359.77" y2="340.29"/>
			<line class="st5-24" x1="66.61" y1="332.31" x2="1359.76" y2="332.31"/>
			<line class="st5-24" x1="66.6" y1="324.32" x2="1359.75" y2="324.32"/>
			<line class="st5-24" x1="66.59" y1="316.34" x2="1359.75" y2="316.34"/>
			<line class="st5-24" x1="66.59" y1="308.35" x2="1359.74" y2="308.35"/>
			<line class="st5-24" x1="66.58" y1="300.37" x2="1359.73" y2="300.37"/>
			<line class="st5-24" x1="66.57" y1="292.38" x2="1359.72" y2="292.38"/>
			<line class="st5-24" x1="66.57" y1="284.4" x2="1359.72" y2="284.4"/>
			<line class="st5-24" x1="66.56" y1="276.41" x2="1359.71" y2="276.41"/>
			<line class="st5-24" x1="66.55" y1="268.42" x2="1359.7" y2="268.42"/>
			<line class="st5-24" x1="66.54" y1="260.44" x2="1359.7" y2="260.44"/>
			<line class="st5-24" x1="66.54" y1="252.45" x2="1359.69" y2="252.45"/>
			<line class="st5-24" x1="66.53" y1="244.47" x2="1359.68" y2="244.47"/>
			<line class="st5-24" x1="66.52" y1="236.48" x2="1359.67" y2="236.48"/>
			<line class="st5-24" x1="66.51" y1="228.5" x2="1359.67" y2="228.5"/>
			<line class="st5-24" x1="66.51" y1="220.51" x2="1359.66" y2="220.51"/>
			<line class="st5-24" x1="66.5" y1="212.53" x2="1359.65" y2="212.53"/>
			<line class="st5-24" x1="66.49" y1="204.54" x2="1359.64" y2="204.54"/>
			<line class="st5-24" x1="66.48" y1="196.56" x2="1359.64" y2="196.56"/>
			<line class="st5-24" x1="66.48" y1="188.57" x2="1359.63" y2="188.57"/>
			<line class="st5-24" x1="66.47" y1="180.59" x2="1359.62" y2="180.59"/>
			<line class="st5-24" x1="66.46" y1="172.6" x2="1359.61" y2="172.6"/>
			<line class="st5-24" x1="66.45" y1="164.61" x2="1359.61" y2="164.61"/>
			<line class="st5-24" x1="66.45" y1="156.63" x2="1359.6" y2="156.63"/>
			<line class="st5-24" x1="66.44" y1="148.64" x2="1359.59" y2="148.64"/>
			<line class="st5-24" x1="66.43" y1="140.66" x2="1359.58" y2="140.66"/>
			<line class="st5-24" x1="66.42" y1="132.67" x2="1359.58" y2="132.67"/>
			<line class="st5-24" x1="66.42" y1="124.69" x2="1359.57" y2="124.69"/>
			<line class="st5-24" x1="66.41" y1="116.7" x2="1359.56" y2="116.7"/>
			<line class="st5-24" x1="66.4" y1="108.72" x2="1359.55" y2="108.72"/>
			<line class="st5-24" x1="66.39" y1="100.73" x2="1359.55" y2="100.73"/>
		</g>
	</g>
</g>
<text transform="matrix(1 0 0 1 91.533 57.7869)" class="st6-24 st7-24">0%</text>
<text transform="matrix(1 0 0 1 41.0402 104.0254)" class="st6-24 st7-24">0%</text>
<text transform="matrix(1 0 0 1 33.634 185.2729)" class="st6-24 st7-24">10%</text>
<text transform="matrix(1 0 0 1 33.634 263.5363)" class="st6-24 st7-24">20%</text>
<text transform="matrix(1 0 0 1 33.634 344.7838)" class="st6-24 st7-24">30%</text>
<text transform="matrix(1 0 0 1 33.634 424.0618)" class="st6-24 st7-24">40%</text>
<text transform="matrix(1 0 0 1 33.634 505.3093)" class="st6-24 st7-24">50%</text>
<text transform="matrix(1 0 0 1 33.634 583.5727)" class="st6-24 st7-24">60%</text>
<text transform="matrix(1 0 0 1 33.634 664.8203)" class="st6-24 st7-24">70%</text>
<text transform="matrix(1 0 0 1 33.634 744.4281)" class="st6-24 st7-24">80%</text>
<text transform="matrix(1 0 0 1 33.634 822.6915)" class="st6-24 st7-24">90%</text>
<text transform="matrix(1 0 0 1 26.2277 903.939)" class="st6-24 st7-24">100%</text>
<text transform="matrix(1 0 0 1 212.6736 57.7869)" class="st6-24 st7-24">10%</text>
<text transform="matrix(1 0 0 1 334.4431 57.7869)" class="st6-24 st7-24">20%</text>
<text transform="matrix(1 0 0 1 454.494 57.7869)" class="st6-24 st7-24">30%</text>
<text transform="matrix(1 0 0 1 579.7139 57.7869)" class="st6-24 st7-24">40%</text>
<text transform="matrix(1 0 0 1 699.94 57.7869)" class="st6-24 st7-24">50%</text>
<text transform="matrix(1 0 0 1 824.7838 57.7869)" class="st6-24 st7-24">60%</text>
<text transform="matrix(1 0 0 1 946.5533 57.7869)" class="st6-24 st7-24">70%</text>
<text transform="matrix(1 0 0 1 1066.6041 57.7869)" class="st6-24 st7-24">80%</text>
<text transform="matrix(1 0 0 1 1191.8241 57.7869)" class="st6-24 st7-24">90%</text>
<text transform="matrix(1 0 0 1 1308.1266 57.7869)" class="st6-24 st7-24">100%</text>
</svg>
