<?xml version="1.0" encoding="utf-8"?>
<!-- Generator: Adobe Illustrator 24.0.3, SVG Export Plug-In . SVG Version: 6.00 Build 0)  -->
<svg version="1.1" id="Layer_1" xmlns="http://www.w3.org/2000/svg" xmlns:xlink="http://www.w3.org/1999/xlink" x="0px" y="0px"
	 viewBox="0 0 1226.22 799.54" style="enable-background:new 0 0 1226.22 799.54;" xml:space="preserve">
<style type="text/css">
	.st0-26{opacity:0.3;}
	.st1-26{fill:#FFFFFF;filter:url(#Adobe_OpacityMaskFilter);}
	.st2-26{mask:url(#path-1-inside-1_1044_17338_1_);fill:none;stroke:#233E94;stroke-width:2;}
</style>
<g class="st0-26">
	<defs>
		<filter id="Adobe_OpacityMaskFilter" filterUnits="userSpaceOnUse" x="0" y="0" width="1226.22" height="799.54">
			<feColorMatrix  type="matrix" values="1 0 0 0 0  0 1 0 0 0  0 0 1 0 0  0 0 0 1 0"/>
		</filter>
	</defs>
	<mask maskUnits="userSpaceOnUse" x="0" y="0" width="1226.22" height="799.54" id="path-1-inside-1_1044_17338_1_">
		<path class="st1-26" d="M623.07,91.76l13.81-1.1l14.17-12.34h19.51l11.41-4.42v9.21l-5.34,10.12l2.76,0.18l-6.44,7.55l9.57,10.48
			l-27.25,25.41l-6.25,0.36l-11.42-8.65v-7.19l-7.35-8.1v-13.8l-7.35-6.26L623.07,91.76z M575.22,306.6v16.75l19.69,20.06h-4.97
			l-1.1,16.57h-43.06v-38.1l23-23.56L575.22,306.6z M247.62,49.6l37.73-13.61h12.88l23.55-23.94h42.15h-0.37v15.83L335.95,55.5
			v33.31l-22.08,23.19v34.43h-21.35l-9.38-12.89l7.73-16.76l-43.25-37.18L247.62,49.6L247.62,49.6z M371.66,244.19l-13.62,11.95
			v39.41h-1.11l-24.66-30.93v-32.04l-32.38-32.58l-16.57,15.83l-13.25-12.7l-9.76,8.1l-28.89-24.3h98.09l24.85,22.09v15.47
			L371.66,244.19z M227.56,106.11l26.69-0.18l12.51,9.39l-8.47,6.07l32.21,37.93h23.01l11.6,9.2h-66.44l-31.28-32.76L227.56,106.11z
			 M198.84,135.38l11.96,13.44v23.38h-8.28l-28.34-27.99l-0.55-8.84H198.84z M144.55,175.89h39.02l11.6,11.04h14.72l40.86,41.79
			l-2.76,4.24h-14.35l-7.72-7.73l-7.73,7.73h-18.96l-19.33-20.25h-10.67l-24.67-24.67V175.89z M455.59,580.89v33.68l-51.53,52.84
			v12.88l-49.69,52.84v20.8l-9.21,6.8V797l-18.4-19.69V718.4l5.52-6.07v-36.83l3.69-6.8V636.1l-38.65-39.2v-39.22l10.67-9.75
			L285.73,524h-27.98l-20.25-22.08h-6.81l-53-53.02v-12.34l-27.61-25.79V357.4l-50.07-52.65H74.99l-28.34,17.68l-32.77-31.85v-27.07
			L1,251.37v-30.01l34.04-8.46h23.38l9.2,9.19h27.05l10.49,7.37h75.65l17.67,20.25h20.25l7.92-7.92l7.92,7.92h22.09l13.44-21.17
			l11.22,6.44l11.6-14.91l8.09,13.62v16.02l-40.48,41.05v41.61h26.69l24.85,21.35v-23.74l12.88-12.88l-9.2-9.2v-17.87h22.46
			l62.57,63.14l-46.74,47.32h-18.04l-14.72,14.73v9.76l-25.21,23.94v6.07l3.87,6.26l-0.18,11.77l-5.52,0.18l-6.62-11.95l-43.8,0.53
			v22.1l18.6,19.69l18.21-3.68v2.94l32.76,32.04h85.95l42.88,46.01h13.43V580.89z M483.75,242.16l-41.04,16.01v4.97l-11.04,11.42
			v32.04l-29.45-27.62V210.5l-18.4-17.68v-32.77l-11.79-13.62h-37.91v-35.71l11.04-13.25V58.25l33.31-0.18l28.16-27.61h17.49
			L453.93,1h31.47l29.26,24.11l-8.1,3.13l10.85,14.17l12.52-6.44h11.05l15.82,15.65l-36.81,24.11v46.57l-5.52,7.18v36.27l-3.68,12.7
			l5.89,37.37l-19.32,26.33H483.75L483.75,242.16z M501.6,268.11v-11.78l23.01-1.46h13.81v4.95l-0.92,24.49h-19.88L501.6,268.11z
			 M759.24,626.54l-11.04,10.13v28.9h-9.2v-47.32l20.23-20.98V626.54z M727.97,570.21v44.73l-20.25,17.12v15.84l-7.35,7.92v12.87
			l-7.55,31.86h-25.2l-35.34-34.05v-29.47l-9.2-9.02v-53.2l-9.2-9.2v-10.5h-52.63l-35.7-34.42v-50.26l52.82-27.61h13.06l8.83-9.19
			h20.98v11.04h22.27l10.86,12.9v-5.53h34.6l24.28,27.61v15.28l39.57,38.1h12.35L727.97,570.21z M967.77,594.89h-29.99v-5.9
			l-18.96-19.13v-12.34l22.45,22.45h23.01l7.74,7.73L967.77,594.89z M1105.82,737.37l-5.9-7.92l0.55-5.7h7.91L1105.82,737.37z
			 M1089.79,715.28l-5.14-4.97l0.37-11.61h-13.43l-9.76-11.05h-22.82l-8.46,11.05h-15.84l-5.14,1.85h-22.1v-29.83l-1.1-3.68
			l5.34-16.58l11.98-5.34h9.56l27.98-27.6h19.87v-5.71l18.4,19.51v-20.98h5.53l11.05,7.36v7l18.39,22.46l0.2,68.3h-24.86v-0.18
			H1089.79z M983.05,578.68l33.86-29.09l-2.4,42.89l-13.97,4.97L983.05,578.68z M1087.4,404.71h-10.12l-4.24,5.9l4.43,6.44
			l0.18,16.58l-18.96,14.17v3.67l-3.87,2.39l-6.25-4.96l0.17-11.97l19.34-15.1l-0.17-20.8l12.49-14.36l14.74,8.65L1087.4,404.71z
			 M1106.74,602.98h-30.02l-15.08-15.83l5.53-6.25h34.21l5.72,4.42L1106.74,602.98z M1204.65,262.78v7.55l-76.02,80.44l3.5-30.19
			l16-21.17l-19.5,16.57h-34.96l-24.86,25.77h7v26.33l-39.02,44.91l12.16,8.65l-13.08,10.49l-11.59-6.63v-5.14l-13.25-11.41
			l-10.67,9.02v11.41l9.2,7.36v23.75l-8.28,32.4H974.4l-15.28,3.31l15.46,17.3v6.99l-12.51,21.18l-11.4-14.17v17.12l3.86,5.89
			l-1.11,11.05l-10.67-0.91l-3.68-13.81l-0.38-30.19l-25.03-25.95h-7.36l-28.16,23.38l-0.56,7.36l-9.38,11.41l-15.46-14.91
			l-0.38-17.86l-24.65-18.59h-28.16l11.05,10.67l-32.02,31.67h-21.54l-34.61-32.94v-14.54l-28.16-29.45l13.62-11.42H692.1
			l-40.86-46.2l-8.1-5.34v8.46l11.6,12.16v8.65l-6.99,3.69l-18.6-12.72h-12.88l-29.63,29.46h-15.65l-19.69-19.89v-9.57h29.45v-28.71
			l38.46-30.19h39.75l8.46-32.03V296.1h-5.51v-21.73l5.51-6.8l-22.09,6.44v60.19H628.6v-14.71h-25.77v-50.8l77.67-54.13h23.18
			l24.28,25.22v6.99l-11.95,10.86l-15.65-14.36v11.24l22.27,20.62l52.09-40.32h29.62l38.64-36.81h22.1l47.3-46.03h29.26l23.01-24.11
			l10.49,11.24h15.08l-0.17,30.37l-16.38,17.49h55.57l16.19,16.56h80.99l26.33,25.77h29.99l4.25-5.52h28.52l9.48,18.71
			L1204.65,262.78z"/>
	</mask>
	<path class="st2-26" d="M623.07,91.76l13.81-1.1l14.17-12.34h19.51l11.41-4.42v9.21l-5.34,10.12l2.76,0.18l-6.44,7.55l9.57,10.48
		l-27.25,25.41l-6.25,0.36l-11.42-8.65v-7.19l-7.35-8.1v-13.8l-7.35-6.26L623.07,91.76z M575.22,306.6v16.75l19.69,20.06h-4.97
		l-1.1,16.57h-43.06v-38.1l23-23.56L575.22,306.6z M247.62,49.6l37.73-13.61h12.88l23.55-23.94h42.15h-0.37v15.83L335.95,55.5v33.31
		l-22.08,23.19v34.43h-21.35l-9.38-12.89l7.73-16.76l-43.25-37.18L247.62,49.6L247.62,49.6z M371.66,244.19l-13.62,11.95v39.41
		h-1.11l-24.66-30.93v-32.04l-32.38-32.58l-16.57,15.83l-13.25-12.7l-9.76,8.1l-28.89-24.3h98.09l24.85,22.09v15.47L371.66,244.19z
		 M227.56,106.11l26.69-0.18l12.51,9.39l-8.47,6.07l32.21,37.93h23.01l11.6,9.2h-66.44l-31.28-32.76L227.56,106.11z M198.84,135.38
		l11.96,13.44v23.38h-8.28l-28.34-27.99l-0.55-8.84H198.84z M144.55,175.89h39.02l11.6,11.04h14.72l40.86,41.79l-2.76,4.24h-14.35
		l-7.72-7.73l-7.73,7.73h-18.96l-19.33-20.25h-10.67l-24.67-24.67V175.89z M455.59,580.89v33.68l-51.53,52.84v12.88l-49.69,52.84
		v20.8l-9.21,6.8V797l-18.4-19.69V718.4l5.52-6.07v-36.83l3.69-6.8V636.1l-38.65-39.2v-39.22l10.67-9.75L285.73,524h-27.98
		l-20.25-22.08h-6.81l-53-53.02v-12.34l-27.61-25.79V357.4l-50.07-52.65H74.99l-28.34,17.68l-32.77-31.85v-27.07L1,251.37v-30.01
		l34.04-8.46h23.38l9.2,9.19h27.05l10.49,7.37h75.65l17.67,20.25h20.25l7.92-7.92l7.92,7.92h22.09l13.44-21.17l11.22,6.44
		l11.6-14.91l8.09,13.62v16.02l-40.48,41.05v41.61h26.69l24.85,21.35v-23.74l12.88-12.88l-9.2-9.2v-17.87h22.46l62.57,63.14
		l-46.74,47.32h-18.04l-14.72,14.73v9.76l-25.21,23.94v6.07l3.87,6.26l-0.18,11.77l-5.52,0.18l-6.62-11.95l-43.8,0.53v22.1
		l18.6,19.69l18.21-3.68v2.94l32.76,32.04h85.95l42.88,46.01h13.43V580.89z M483.75,242.16l-41.04,16.01v4.97l-11.04,11.42v32.04
		l-29.45-27.62V210.5l-18.4-17.68v-32.77l-11.79-13.62h-37.91v-35.71l11.04-13.25V58.25l33.31-0.18l28.16-27.61h17.49L453.93,1
		h31.47l29.26,24.11l-8.1,3.13l10.85,14.17l12.52-6.44h11.05l15.82,15.65l-36.81,24.11v46.57l-5.52,7.18v36.27l-3.68,12.7
		l5.89,37.37l-19.32,26.33H483.75L483.75,242.16z M501.6,268.11v-11.78l23.01-1.46h13.81v4.95l-0.92,24.49h-19.88L501.6,268.11z
		 M759.24,626.54l-11.04,10.13v28.9h-9.2v-47.32l20.23-20.98V626.54z M727.97,570.21v44.73l-20.25,17.12v15.84l-7.35,7.92v12.87
		l-7.55,31.86h-25.2l-35.34-34.05v-29.47l-9.2-9.02v-53.2l-9.2-9.2v-10.5h-52.63l-35.7-34.42v-50.26l52.82-27.61h13.06l8.83-9.19
		h20.98v11.04h22.27l10.86,12.9v-5.53h34.6l24.28,27.61v15.28l39.57,38.1h12.35L727.97,570.21z M967.77,594.89h-29.99v-5.9
		l-18.96-19.13v-12.34l22.45,22.45h23.01l7.74,7.73L967.77,594.89z M1105.82,737.37l-5.9-7.92l0.55-5.7h7.91L1105.82,737.37z
		 M1089.79,715.28l-5.14-4.97l0.37-11.61h-13.43l-9.76-11.05h-22.82l-8.46,11.05h-15.84l-5.14,1.85h-22.1v-29.83l-1.1-3.68
		l5.34-16.58l11.98-5.34h9.56l27.98-27.6h19.87v-5.71l18.4,19.51v-20.98h5.53l11.05,7.36v7l18.39,22.46l0.2,68.3h-24.86v-0.18
		H1089.79z M983.05,578.68l33.86-29.09l-2.4,42.89l-13.97,4.97L983.05,578.68z M1087.4,404.71h-10.12l-4.24,5.9l4.43,6.44
		l0.18,16.58l-18.96,14.17v3.67l-3.87,2.39l-6.25-4.96l0.17-11.97l19.34-15.1l-0.17-20.8l12.49-14.36l14.74,8.65L1087.4,404.71z
		 M1106.74,602.98h-30.02l-15.08-15.83l5.53-6.25h34.21l5.72,4.42L1106.74,602.98z M1204.65,262.78v7.55l-76.02,80.44l3.5-30.19
		l16-21.17l-19.5,16.57h-34.96l-24.86,25.77h7v26.33l-39.02,44.91l12.16,8.65l-13.08,10.49l-11.59-6.63v-5.14l-13.25-11.41
		l-10.67,9.02v11.41l9.2,7.36v23.75l-8.28,32.4H974.4l-15.28,3.31l15.46,17.3v6.99l-12.51,21.18l-11.4-14.17v17.12l3.86,5.89
		l-1.11,11.05l-10.67-0.91l-3.68-13.81l-0.38-30.19l-25.03-25.95h-7.36l-28.16,23.38l-0.56,7.36l-9.38,11.41l-15.46-14.91
		l-0.38-17.86l-24.65-18.59h-28.16l11.05,10.67l-32.02,31.67h-21.54l-34.61-32.94v-14.54l-28.16-29.45l13.62-11.42H692.1
		l-40.86-46.2l-8.1-5.34v8.46l11.6,12.16v8.65l-6.99,3.69l-18.6-12.72h-12.88l-29.63,29.46h-15.65l-19.69-19.89v-9.57h29.45v-28.71
		l38.46-30.19h39.75l8.46-32.03V296.1h-5.51v-21.73l5.51-6.8l-22.09,6.44v60.19H628.6v-14.71h-25.77v-50.8l77.67-54.13h23.18
		l24.28,25.22v6.99l-11.95,10.86l-15.65-14.36v11.24l22.27,20.62l52.09-40.32h29.62l38.64-36.81h22.1l47.3-46.03h29.26l23.01-24.11
		l10.49,11.24h15.08l-0.17,30.37l-16.38,17.49h55.57l16.19,16.56h80.99l26.33,25.77h29.99l4.25-5.52h28.52l9.48,18.71
		L1204.65,262.78z"/>
</g>
</svg>
